test/inst_load_store_test.vcd
$date
	Thu May 17 21:48:22 2018
$end
$version
	Icarus Verilog
$end
$timescale
	1ps
$end
$scope module inst_load_store_test $end
$var wire 32 ! mem0x0008 [31:0] $end
$var wire 32 " mem0x0004 [31:0] $end
$var wire 32 # mem0x0000 [31:0] $end
$var reg 1 $ clk $end
$var reg 1 % rst $end
$scope module open_mips_min_sopc0 $end
$var wire 1 $ clk $end
$var wire 1 % rst $end
$var wire 1 & rom_ce $end
$var wire 1 ' ram_we $end
$var wire 4 ( ram_sel [3:0] $end
$var wire 32 ) ram_data_o [31:0] $end
$var wire 32 * ram_data_i [31:0] $end
$var wire 1 + ram_ce $end
$var wire 32 , ram_addr [31:0] $end
$var wire 32 - inst_addr [31:0] $end
$var wire 32 . inst [31:0] $end
$scope module data_ram0 $end
$var wire 1 $ clk $end
$var wire 1 ' we $end
$var wire 4 / sel [3:0] $end
$var wire 10 0 saddr [9:0] $end
$var wire 32 1 data_i [31:0] $end
$var wire 1 + ce $end
$var wire 32 2 addr [31:0] $end
$var reg 32 3 data_o [31:0] $end
$upscope $end
$scope module inst_rom0 $end
$var wire 1 & ce $end
$var wire 32 4 addr [31:0] $end
$var reg 32 5 inst [31:0] $end
$upscope $end
$scope module openmips0 $end
$var wire 1 $ clk $end
$var wire 32 6 ram_data_i [31:0] $end
$var wire 32 7 rom_addr_o [31:0] $end
$var wire 32 8 rom_data_i [31:0] $end
$var wire 1 % rst $end
$var wire 1 9 stallreq_from_ex $end
$var wire 1 : wb_whilo_i $end
$var wire 1 ; wb_we_i $end
$var wire 32 < wb_wdata_i [31:0] $end
$var wire 5 = wb_waddr_i [4:0] $end
$var wire 32 > wb_lo_i [31:0] $end
$var wire 32 ? wb_hi_i [31:0] $end
$var wire 1 @ wb_LLbit_we_i $end
$var wire 1 A wb_LLbit_value_i $end
$var wire 1 B stallreq_from_id $end
$var wire 6 C stall [5:0] $end
$var wire 1 & rom_ce_o $end
$var wire 1 D reg2_read $end
$var wire 32 E reg2_data [31:0] $end
$var wire 5 F reg2_addr [4:0] $end
$var wire 1 G reg1_read $end
$var wire 32 H reg1_data [31:0] $end
$var wire 5 I reg1_addr [4:0] $end
$var wire 1 ' ram_we $end
$var wire 4 J ram_sel [3:0] $end
$var wire 32 K ram_data_o [31:0] $end
$var wire 1 + ram_ce $end
$var wire 32 L ram_addr [31:0] $end
$var wire 32 M pc [31:0] $end
$var wire 1 N mem_whilo_o $end
$var wire 1 O mem_whilo_i $end
$var wire 1 P mem_we_o $end
$var wire 1 Q mem_we_i $end
$var wire 32 R mem_wdata_o [31:0] $end
$var wire 32 S mem_wdata_i [31:0] $end
$var wire 5 T mem_waddr_o [4:0] $end
$var wire 5 U mem_waddr_i [4:0] $end
$var wire 32 V mem_lo_o [31:0] $end
$var wire 32 W mem_lo_i [31:0] $end
$var wire 32 X mem_hi_o [31:0] $end
$var wire 32 Y mem_hi_i [31:0] $end
$var wire 1 Z mem_LLbit_we_o $end
$var wire 1 [ mem_LLbit_value_o $end
$var wire 32 \ lo_ex_o [31:0] $end
$var wire 1 ] idex_id_cur_in_delay_slot $end
$var wire 1 ^ idex_ex_next_in_delay_slot $end
$var wire 32 _ idex_ex_link_addr [31:0] $end
$var wire 32 ` idex_ex_inst [31:0] $end
$var wire 1 a id_we_o $end
$var wire 5 b id_waddr_o [4:0] $end
$var wire 32 c id_pc_i [31:0] $end
$var wire 1 d id_pc_branch_flag $end
$var wire 32 e id_pc_branch_addr [31:0] $end
$var wire 32 f id_opv2_o [31:0] $end
$var wire 32 g id_opv1_o [31:0] $end
$var wire 32 h id_inst_i [31:0] $end
$var wire 1 i id_idex_next_in_delay_slot $end
$var wire 32 j id_idex_link_addr [31:0] $end
$var wire 32 k id_idex_inst [31:0] $end
$var wire 1 l id_idex_cur_in_delay_slot $end
$var wire 3 m id_alusel_o [2:0] $end
$var wire 8 n id_aluop_o [7:0] $end
$var wire 32 o hi_ex_o [31:0] $end
$var wire 32 p exmem_mem_opv2 [31:0] $end
$var wire 32 q exmem_mem_mem_addr [31:0] $end
$var wire 8 r exmem_mem_aluop [7:0] $end
$var wire 1 s ex_whilo_o $end
$var wire 1 t ex_we_o $end
$var wire 1 u ex_we_i $end
$var wire 32 v ex_wdata_o [31:0] $end
$var wire 5 w ex_waddr_o [4:0] $end
$var wire 5 x ex_waddr_i [4:0] $end
$var wire 32 y ex_opv2_i [31:0] $end
$var wire 32 z ex_opv1_i [31:0] $end
$var wire 32 { ex_lo_o [31:0] $end
$var wire 32 | ex_hi_o [31:0] $end
$var wire 32 } ex_exmem_opv2 [31:0] $end
$var wire 32 ~ ex_exmem_mem_addr [31:0] $end
$var wire 8 !" ex_exmem_aluop [7:0] $end
$var wire 3 "" ex_alusel_i [2:0] $end
$var wire 8 #" ex_aluop_i [7:0] $end
$var wire 1 $" LLbitreg_mem_LLbit_o $end
$scope module LLbit_reg0 $end
$var wire 1 $ clk $end
$var wire 1 %" flush $end
$var wire 1 % rst $end
$var wire 1 @ we $end
$var wire 1 A LLbit_i $end
$var reg 1 $" LLbit_o $end
$upscope $end
$scope module ctrl0 $end
$var wire 1 % rst $end
$var wire 1 9 stallreq_from_ex $end
$var wire 1 B stallreq_from_id $end
$var reg 6 &" stall [5:0] $end
$upscope $end
$scope module ex0 $end
$var wire 8 '" aluop_o [7:0] $end
$var wire 32 (" opv1_i_not [31:0] $end
$var wire 32 )" opv2_o [31:0] $end
$var wire 1 % rst $end
$var wire 1 9 stallreq $end
$var wire 1 *" sum_overflow $end
$var wire 1 u we_i $end
$var wire 1 : wb_whilo_i $end
$var wire 32 +" wb_lo_i [31:0] $end
$var wire 32 ," wb_hi_i [31:0] $end
$var wire 5 -" waddr_i [4:0] $end
$var wire 32 ." opv2_i [31:0] $end
$var wire 32 /" opv1_i [31:0] $end
$var wire 1 N mem_whilo_i $end
$var wire 32 0" mem_lo_i [31:0] $end
$var wire 32 1" mem_hi_i [31:0] $end
$var wire 32 2" mem_addr_o [31:0] $end
$var wire 32 3" lo_i [31:0] $end
$var wire 32 4" link_addr_i [31:0] $end
$var wire 32 5" inst_i [31:0] $end
$var wire 32 6" hi_i [31:0] $end
$var wire 1 ^ cur_in_delay_slot_i $end
$var wire 3 7" alusel_i [2:0] $end
$var wire 8 8" aluop_i [7:0] $end
$var reg 32 9" HI [31:0] $end
$var reg 32 :" LO [31:0] $end
$var reg 32 ;" arith_res [31:0] $end
$var reg 32 <" hi_o [31:0] $end
$var reg 32 =" lo_o [31:0] $end
$var reg 32 >" logic_res [31:0] $end
$var reg 32 ?" move_res [31:0] $end
$var reg 64 @" mul_res [63:0] $end
$var reg 32 A" shift_res [31:0] $end
$var reg 5 B" waddr_o [4:0] $end
$var reg 32 C" wdata_o [31:0] $end
$var reg 1 t we_o $end
$var reg 1 s whilo_o $end
$upscope $end
$scope module ex_mem0 $end
$var wire 1 $ clk $end
$var wire 8 D" ex_aluop [7:0] $end
$var wire 32 E" ex_hi [31:0] $end
$var wire 32 F" ex_lo [31:0] $end
$var wire 32 G" ex_mem_addr [31:0] $end
$var wire 32 H" ex_opv2 [31:0] $end
$var wire 5 I" ex_waddr [4:0] $end
$var wire 32 J" ex_wdata [31:0] $end
$var wire 1 t ex_we $end
$var wire 1 s ex_whilo $end
$var wire 1 % rst $end
$var wire 6 K" stall [5:0] $end
$var reg 8 L" mem_aluop [7:0] $end
$var reg 32 M" mem_hi [31:0] $end
$var reg 32 N" mem_lo [31:0] $end
$var reg 32 O" mem_mem_addr [31:0] $end
$var reg 32 P" mem_opv2 [31:0] $end
$var reg 5 Q" mem_waddr [4:0] $end
$var reg 32 R" mem_wdata [31:0] $end
$var reg 1 Q mem_we $end
$var reg 1 O mem_whilo $end
$upscope $end
$scope module hilo_reg0 $end
$var wire 1 $ clk $end
$var wire 1 % rst $end
$var wire 1 : we $end
$var wire 32 S" lo_i [31:0] $end
$var wire 32 T" hi_i [31:0] $end
$var reg 32 U" hi_o [31:0] $end
$var reg 32 V" lo_o [31:0] $end
$upscope $end
$scope module id0 $end
$var wire 1 l cur_in_delay_slot_o $end
$var wire 8 W" ex_aluop_i [7:0] $end
$var wire 5 X" ex_waddr_i [4:0] $end
$var wire 32 Y" ex_wdata_i [31:0] $end
$var wire 1 t ex_we_i $end
$var wire 32 Z" inst_o [31:0] $end
$var wire 1 % rst $end
$var wire 1 B stallreq $end
$var wire 32 [" sext_imm [31:0] $end
$var wire 5 \" sa [4:0] $end
$var wire 5 ]" rt [4:0] $end
$var wire 5 ^" rs [4:0] $end
$var wire 32 _" reg2_data_i [31:0] $end
$var wire 32 `" reg1_data_i [31:0] $end
$var wire 5 a" rd [4:0] $end
$var wire 1 b" pre_inst_is_load $end
$var wire 32 c" pc_j [31:0] $end
$var wire 32 d" pc_i [31:0] $end
$var wire 32 e" pc_b [31:0] $end
$var wire 32 f" pc8 [31:0] $end
$var wire 32 g" pc4 [31:0] $end
$var wire 6 h" op [5:0] $end
$var wire 1 P mem_we_i $end
$var wire 32 i" mem_wdata_i [31:0] $end
$var wire 5 j" mem_waddr_i [4:0] $end
$var wire 16 k" inst_imm [15:0] $end
$var wire 32 l" inst_i [31:0] $end
$var wire 6 m" funct [5:0] $end
$var wire 1 ] cur_in_delay_slot_i $end
$var reg 8 n" aluop_o [7:0] $end
$var reg 3 o" alusel_o [2:0] $end
$var reg 32 p" branch_addr_o [31:0] $end
$var reg 1 d branch_flag_o $end
$var reg 32 q" imm [31:0] $end
$var reg 1 r" inst_valid $end
$var reg 32 s" link_addr_o [31:0] $end
$var reg 1 i next_in_delay_slot_o $end
$var reg 32 t" opv1_o [31:0] $end
$var reg 32 u" opv2_o [31:0] $end
$var reg 5 v" reg1_addr_o [4:0] $end
$var reg 1 G reg1_re_o $end
$var reg 5 w" reg2_addr_o [4:0] $end
$var reg 1 D reg2_re_o $end
$var reg 1 x" stallreq_for_reg1_load_dependant $end
$var reg 1 y" stallreq_for_reg2_load_dependant $end
$var reg 5 z" waddr_o [4:0] $end
$var reg 1 a we_o $end
$upscope $end
$scope module id_ex0 $end
$var wire 1 $ clk $end
$var wire 8 {" id_aluop [7:0] $end
$var wire 3 |" id_alusel [2:0] $end
$var wire 1 l id_cur_in_delay_slot $end
$var wire 32 }" id_inst [31:0] $end
$var wire 32 ~" id_link_addr [31:0] $end
$var wire 32 !# id_reg1 [31:0] $end
$var wire 32 "# id_reg2 [31:0] $end
$var wire 5 ## id_waddr [4:0] $end
$var wire 1 a id_we $end
$var wire 1 i next_in_delay_slot_i $end
$var wire 1 % rst $end
$var wire 6 $# stall [5:0] $end
$var reg 8 %# ex_aluop [7:0] $end
$var reg 3 &# ex_alusel [2:0] $end
$var reg 1 ^ ex_cur_in_delay_slot $end
$var reg 32 '# ex_inst [31:0] $end
$var reg 32 (# ex_link_addr [31:0] $end
$var reg 32 )# ex_reg1 [31:0] $end
$var reg 32 *# ex_reg2 [31:0] $end
$var reg 5 +# ex_waddr [4:0] $end
$var reg 1 u ex_we $end
$var reg 1 ] next_in_delay_slot_o $end
$upscope $end
$scope module if_id0 $end
$var wire 1 $ clk $end
$var wire 32 ,# if_inst [31:0] $end
$var wire 1 % rst $end
$var wire 6 -# stall [5:0] $end
$var wire 32 .# if_pc [31:0] $end
$var reg 32 /# id_inst [31:0] $end
$var reg 32 0# id_pc [31:0] $end
$upscope $end
$scope module mem0 $end
$var wire 1 $" LLbit_i $end
$var wire 8 1# aluop_i [7:0] $end
$var wire 32 2# hi_i [31:0] $end
$var wire 32 3# lo_i [31:0] $end
$var wire 32 4# mem_addr_i [31:0] $end
$var wire 32 5# mem_data_i [31:0] $end
$var wire 32 6# opv2_i [31:0] $end
$var wire 1 % rst $end
$var wire 5 7# waddr_i [4:0] $end
$var wire 32 8# wdata_i [31:0] $end
$var wire 1 Q we_i $end
$var wire 1 O whilo_i $end
$var wire 1 @ wb_LLbit_we_i $end
$var wire 1 A wb_LLbit_value_i $end
$var reg 1 9# LLbit $end
$var reg 1 [ LLbit_value_o $end
$var reg 1 Z LLbit_we_o $end
$var reg 32 :# hi_o [31:0] $end
$var reg 32 ;# lo_o [31:0] $end
$var reg 32 <# mem_addr_o [31:0] $end
$var reg 1 + mem_ce_o $end
$var reg 32 =# mem_data_o [31:0] $end
$var reg 4 ># mem_sel_o [3:0] $end
$var reg 1 ' mem_we_o $end
$var reg 5 ?# waddr_o [4:0] $end
$var reg 32 @# wdata_o [31:0] $end
$var reg 1 P we_o $end
$var reg 1 N whilo_o $end
$upscope $end
$scope module mem_wb0 $end
$var wire 1 $ clk $end
$var wire 1 [ mem_LLbit_value $end
$var wire 1 Z mem_LLbit_we $end
$var wire 32 A# mem_hi [31:0] $end
$var wire 32 B# mem_lo [31:0] $end
$var wire 5 C# mem_waddr [4:0] $end
$var wire 32 D# mem_wdata [31:0] $end
$var wire 1 P mem_we $end
$var wire 1 N mem_whilo $end
$var wire 1 % rst $end
$var wire 6 E# stall [5:0] $end
$var reg 1 A wb_LLbit_value $end
$var reg 1 @ wb_LLbit_we $end
$var reg 32 F# wb_hi [31:0] $end
$var reg 32 G# wb_lo [31:0] $end
$var reg 5 H# wb_waddr [4:0] $end
$var reg 32 I# wb_wdata [31:0] $end
$var reg 1 ; wb_we $end
$var reg 1 : wb_whilo $end
$upscope $end
$scope module pc_reg0 $end
$var wire 32 J# branch_addr_i [31:0] $end
$var wire 1 d branch_flag_i $end
$var wire 1 $ clk $end
$var wire 1 % rst $end
$var wire 6 K# stall [5:0] $end
$var reg 1 & ce $end
$var reg 32 L# pc [31:0] $end
$upscope $end
$scope module regfile1 $end
$var wire 1 $ clk $end
$var wire 5 M# raddr1 [4:0] $end
$var wire 5 N# raddr2 [4:0] $end
$var wire 1 G re1 $end
$var wire 1 D re2 $end
$var wire 1 % rst $end
$var wire 5 O# waddr [4:0] $end
$var wire 32 P# wdata [31:0] $end
$var wire 1 ; we $end
$var reg 32 Q# rdata1 [31:0] $end
$var reg 32 R# rdata2 [31:0] $end
$upscope $end
$upscope $end
$upscope $end
$upscope $end
$scope module inst_load_store_test $end
$scope module open_mips_min_sopc0 $end
$scope module openmips0 $end
$scope module regfile1 $end
$var reg 32 S# \regs[1] [31:0] $end
$upscope $end
$upscope $end
$upscope $end
$upscope $end
$scope module inst_load_store_test $end
$scope module open_mips_min_sopc0 $end
$scope module openmips0 $end
$scope module regfile1 $end
$var reg 32 T# \regs[3] [31:0] $end
$upscope $end
$upscope $end
$upscope $end
$upscope $end
$enddefinitions $end
#0
$dumpvars
bx T#
bx S#
b0 R#
b0 Q#
bx P#
bx O#
bx N#
bx M#
bx L#
b0 K#
bx J#
bx I#
bx H#
bx G#
bx F#
b0 E#
b0 D#
b0 C#
b0 B#
b0 A#
b0 @#
b0 ?#
b0 >#
b0 =#
b0 <#
b0 ;#
b0 :#
09#
bx 8#
bx 7#
bx 6#
b0 5#
bx 4#
bx 3#
bx 2#
bx 1#
bx 0#
bx /#
bx .#
b0 -#
bx ,#
bx +#
bx *#
bx )#
bx (#
bx '#
bx &#
bx %#
b0 $#
bx ##
b0 "#
b0 !#
bx ~"
bx }"
b0 |"
b0 {"
bx z"
0y"
0x"
bx w"
bx v"
b0 u"
b0 t"
bx s"
0r"
b0 q"
bx p"
b0 o"
b0 n"
bx m"
bx l"
bx k"
b0 j"
b0 i"
bx h"
bx g"
bx f"
bx e"
bx d"
bx00 c"
xb"
bx a"
b0 `"
b0 _"
bx ^"
bx ]"
bx \"
bx ["
bx Z"
b0 Y"
bx X"
bx W"
bx V"
bx U"
bx T"
bx S"
bx R"
bx Q"
bx P"
bx O"
bx N"
bx M"
bx L"
b0 K"
b0 J"
bx I"
bx H"
bx G"
b0 F"
b0 E"
bx D"
b0 C"
bx B"
b0 A"
b0 @"
b0 ?"
b0 >"
b0 ="
b0 <"
b0 ;"
b0 :"
b0 9"
bx 8"
bx 7"
bx 6"
bx 5"
bx 4"
bx 3"
bx 2"
b0 1"
b0 0"
bx /"
bx ."
bx -"
bx ,"
bx +"
0*"
bx )"
bx ("
bx '"
b0 &"
0%"
x$"
bx #"
bx ""
bx !"
bx ~
bx }
b0 |
b0 {
bx z
bx y
bx x
bx w
b0 v
xu
xt
0s
bx r
bx q
bx p
bx o
b0 n
b0 m
xl
bx k
bx j
xi
bx h
b0 g
b0 f
bx e
xd
bx c
bx b
0a
bx `
bx _
x^
x]
bx \
0[
0Z
bx Y
b0 X
bx W
b0 V
bx U
b0 T
bx S
b0 R
xQ
0P
xO
0N
bx M
b0 L
b0 K
b0 J
bx I
b0 H
0G
bx F
b0 E
0D
b0 C
0B
xA
x@
bx ?
bx >
bx =
bx <
x;
x:
09
bx 8
bx 7
b0 6
bx 5
bx 4
b0 3
b0 2
b0 1
b0 0
b0 /
bx .
bx -
b0 ,
0+
b0 *
b0 )
b0 (
0'
x&
1%
0$
bx #
bx "
bx !
$end
#1000
b0 b
b0 z"
b0 ##
b0 F
b0 w"
b0 N#
b0 I
b0 v"
b0 M#
b0 .
b0 5
b0 8
b0 ,#
0t
b0 w
b0 B"
b0 I"
b0 X"
0b"
b100 e"
b0 ["
b0 k"
b0 m"
b0 \"
b0 a"
b0 ]"
b0 ^"
b0 h"
b0 c"
b0 ~
b0 2"
b0 G"
b11111111111111111111111111111111 ("
0&
b0 k
b0 Z"
b0 }"
b0 h
b0 l"
b0 /#
b1000 f"
b100 g"
b0 c
b0 d"
b0 0#
b0 `
b0 5"
b0 '#
0l
0]
b0 _
b0 4"
b0 (#
0^
0u
b0 x
b0 -"
b0 +#
b0 }
b0 )"
b0 H"
b0 y
b0 ."
b0 *#
b0 z
b0 /"
b0 )#
b0 ""
b0 7"
b0 &#
b0 !"
b0 '"
b0 D"
b0 W"
b0 #"
b0 8"
b0 %#
b0 p
b0 P"
b0 6#
b0 q
b0 O"
b0 4#
b0 r
b0 L"
b0 1#
b0 W
b0 N"
b0 3#
b0 Y
b0 M"
b0 2#
0O
b0 S
b0 R"
b0 8#
0Q
b0 U
b0 Q"
b0 7#
0A
0@
b0 >
b0 +"
b0 S"
b0 G#
b0 ?
b0 ,"
b0 T"
b0 F#
0:
b0 <
b0 I#
b0 P#
0;
b0 =
b0 H#
b0 O#
b0 \
b0 3"
b0 V"
b0 o
b0 6"
b0 U"
0$"
1$
#2000
0$
#3000
b0 -
b0 4
b0 7
b0 M
b0 .#
b0 L#
1$
#4000
0$
#5000
1$
#6000
0$
#7000
1$
#8000
0$
#9000
1$
#10000
0$
#11000
1$
#12000
0$
#13000
1$
#14000
0$
#15000
1$
#16000
0$
#17000
1$
#18000
0$
#19000
1$
#20000
1r"
1a
1D
b10 m
b10 o"
b10 |"
b1111100 n
b1111100 n"
b1111100 {"
0i
b0 j
b0 s"
b0 ~"
b0 e
b0 p"
b0 J#
0d
0$
0%
#21000
b110100000000111110111011111111 .
b110100000000111110111011111111 5
b110100000000111110111011111111 8
b110100000000111110111011111111 ,#
1t
1&
1u
b10 ""
b10 7"
b10 &#
b1111100 !"
b1111100 '"
b1111100 D"
b1111100 W"
b1111100 #"
b1111100 8"
b1111100 %#
1$
#22000
0$
#23000
b1110111011111111 f
b1110111011111111 u"
b1110111011111111 "#
b1110111011111111 q"
b11 b
b11 z"
b11 ##
1G
1r"
1a
0D
b1 m
b1 o"
b1 |"
b100101 n
b100101 n"
b100101 {"
1P
b10100000000000110000000000000011 .
b10100000000000110000000000000011 5
b10100000000000110000000000000011 8
b10100000000000110000000000000011 ,#
b11111111111111111011110000000000 e"
b11111011101111111100 c"
b11111111111111111110111011111111 ["
b1110111011111111 k"
b111111 m"
b11011 \"
b11101 a"
b11 ]"
b1101 h"
b1111100 r
b1111100 L"
b1111100 1#
1Q
b110100000000111110111011111111 k
b110100000000111110111011111111 Z"
b110100000000111110111011111111 }"
b110100000000111110111011111111 h
b110100000000111110111011111111 l"
b110100000000111110111011111111 /#
b100 -
b100 4
b100 7
b100 M
b100 .#
b100 L#
1$
#24000
0$
#25000
bx E
bx _"
bx R#
b1110111011111111 f
b1110111011111111 u"
b1110111011111111 "#
b1110111011111111 v
b1110111011111111 C"
b1110111011111111 J"
b1110111011111111 Y"
b11 F
b11 w"
b11 N#
1D
b110001101000000010 .
b110001101000000010 5
b110001101000000010 8
b110001101000000010 ,#
1r"
b0 q"
b0 b
b0 z"
b0 ##
0a
1G
b111 m
b111 o"
b111 |"
b11101000 n
b11101000 n"
b11101000 {"
b11 w
b11 B"
b11 I"
b11 X"
b1110111011111111 >"
b11000000000000001100 c"
b11 ["
b11 k"
b11 m"
b0 \"
b0 a"
b101000 h"
b11111111111111111110111011111111 ~
b11111111111111111110111011111111 2"
b11111111111111111110111011111111 G"
b1000 -
b1000 4
b1000 7
b1000 M
b1000 .#
b1000 L#
b10100000000000110000000000000011 k
b10100000000000110000000000000011 Z"
b10100000000000110000000000000011 }"
b10100000000000110000000000000011 h
b10100000000000110000000000000011 l"
b10100000000000110000000000000011 /#
b10100 e"
b1100 f"
b1000 g"
b100 c
b100 d"
b100 0#
b110100000000111110111011111111 `
b110100000000111110111011111111 5"
b110100000000111110111011111111 '#
b11 x
b11 -"
b11 +#
b1110111011111111 }
b1110111011111111 )"
b1110111011111111 H"
b1110111011111111 y
b1110111011111111 ."
b1110111011111111 *#
b1 ""
b1 7"
b1 &#
b100101 !"
b100101 '"
b100101 D"
b100101 W"
b100101 #"
b100101 8"
b100101 %#
1;
1$
#26000
0$
#27000
b1000 g
b1000 t"
b1000 !#
b1000 q"
b11 b
b11 z"
b11 ##
1a
b1110111011111111 R
b1110111011111111 i"
b1110111011111111 @#
b1110111011111111 D#
b11 T
b11 j"
b11 ?#
b11 C#
b0 v
b0 C"
b0 J"
b0 Y"
0t
b0 w
b0 B"
b0 I"
b0 X"
b0 >"
1r"
b11 F
b11 w"
b11 N#
1D
0G
b10 m
b10 o"
b10 |"
b10 n
b10 n"
b10 {"
b10100000000000110000000000000010 .
b10100000000000110000000000000010 5
b10100000000000110000000000000010 8
b10100000000000110000000000000010 ,#
b11 ~
b11 2"
b11 G"
b11000110100000001000 c"
b1101000000010 ["
b1101000000010 k"
b10 m"
b1000 \"
b11 a"
b0 h"
b1110111011111111 p
b1110111011111111 P"
b1110111011111111 6#
b11111111111111111110111011111111 q
b11111111111111111110111011111111 O"
b11111111111111111110111011111111 4#
b100101 r
b100101 L"
b100101 1#
b1110111011111111 S
b1110111011111111 R"
b1110111011111111 8#
b11 U
b11 Q"
b11 7#
b10100000000000110000000000000011 `
b10100000000000110000000000000011 5"
b10100000000000110000000000000011 '#
0u
b0 x
b0 -"
b0 +#
b111 ""
b111 7"
b111 &#
b11101000 !"
b11101000 '"
b11101000 D"
b11101000 W"
b11101000 #"
b11101000 8"
b11101000 %#
b110001101000000010 k
b110001101000000010 Z"
b110001101000000010 }"
b110001101000000010 h
b110001101000000010 l"
b110001101000000010 /#
b110100000010100 e"
b10000 f"
b1100 g"
b1000 c
b1000 d"
b1000 0#
b1100 -
b1100 4
b1100 7
b1100 M
b1100 .#
b1100 L#
1$
#28000
0$
#29000
b11101110 v
b11101110 C"
b11101110 J"
b11101110 Y"
b0 g
b0 t"
b0 !#
b11101110 f
b11101110 u"
b11101110 "#
1G
b110100000000111100110011011101 .
b110100000000111100110011011101 5
b110100000000111100110011011101 8
b110100000000111100110011011101 ,#
1r"
b0 q"
b0 b
b0 z"
b0 ##
0a
b11 F
b11 w"
b11 N#
1D
b111 m
b111 o"
b111 |"
b11101000 n
b11101000 n"
b11101000 {"
1t
b11 w
b11 B"
b11 I"
b11 X"
b11101110 A"
1+
b11111111111111111111111111111111 )
b11111111111111111111111111111111 1
b11111111111111111111111111111111 K
b11111111111111111111111111111111 =#
b11 ,
b11 2
b11 L
b11 <#
b1 (
b1 /
b1 J
b1 >#
1'
b0 R
b0 i"
b0 @#
b0 D#
0P
b0 T
b0 j"
b0 ?#
b0 C#
b1110111011111111 E
b1110111011111111 _"
b1110111011111111 R#
b11000000000000001000 c"
b10 ["
b10 k"
b0 \"
b0 a"
b101000 h"
b11111111111111111111111111110111 ("
b10000 -
b10000 4
b10000 7
b10000 M
b10000 .#
b10000 L#
b10100000000000110000000000000010 k
b10100000000000110000000000000010 Z"
b10100000000000110000000000000010 }"
b10100000000000110000000000000010 h
b10100000000000110000000000000010 l"
b10100000000000110000000000000010 /#
b11000 e"
b10100 f"
b10000 g"
b1100 c
b1100 d"
b1100 0#
b110001101000000010 `
b110001101000000010 5"
b110001101000000010 '#
1u
b11 x
b11 -"
b11 +#
b1101000001010 ~
b1101000001010 2"
b1101000001010 G"
b1000 z
b1000 /"
b1000 )#
b10 ""
b10 7"
b10 &#
b10 !"
b10 '"
b10 D"
b10 W"
b10 #"
b10 8"
b10 %#
b11 q
b11 O"
b11 4#
b11101000 r
b11101000 L"
b11101000 1#
b0 S
b0 R"
b0 8#
0Q
b0 U
b0 Q"
b0 7#
b1110111011111111 <
b1110111011111111 I#
b1110111011111111 P#
b11 =
b11 H#
b11 O#
1$
#30000
0$
#31000
b1100110011011101 f
b1100110011011101 u"
b1100110011011101 "#
b0 E
b0 _"
b0 R#
b1100110011011101 q"
b11 b
b11 z"
b11 ##
1a
0+
b0 )
b0 1
b0 K
b0 =#
b0 ,
b0 2
b0 L
b0 <#
b0 (
b0 /
b0 J
b0 >#
0'
b11101110 R
b11101110 i"
b11101110 @#
b11101110 D#
1P
b11 T
b11 j"
b11 ?#
b11 C#
b0 v
b0 C"
b0 J"
b0 Y"
0t
b0 w
b0 B"
b0 I"
b0 X"
b0 A"
1r"
b0 F
b0 w"
b0 N#
0D
1G
b1 m
b1 o"
b1 |"
b100101 n
b100101 n"
b100101 {"
b10100000000000110000000000000001 .
b10100000000000110000000000000001 5
b10100000000000110000000000000001 8
b10100000000000110000000000000001 ,#
b11111111111111111111111111111111 ("
b11110011001101110100 c"
b11111111111111111100110011011101 ["
b1100110011011101 k"
b11101 m"
b10011 \"
b11001 a"
b1101 h"
bx11111111 #
b0 <
b0 I#
b0 P#
0;
b0 =
b0 H#
b0 O#
b1101000001010 q
b1101000001010 O"
b1101000001010 4#
b10 r
b10 L"
b10 1#
b11101110 S
b11101110 R"
b11101110 8#
1Q
b11 U
b11 Q"
b11 7#
b10100000000000110000000000000010 `
b10100000000000110000000000000010 5"
b10100000000000110000000000000010 '#
0u
b0 x
b0 -"
b0 +#
b11101110 }
b11101110 )"
b11101110 H"
b11101110 y
b11101110 ."
b11101110 *#
b10 ~
b10 2"
b10 G"
b0 z
b0 /"
b0 )#
b111 ""
b111 7"
b111 &#
b11101000 !"
b11101000 '"
b11101000 D"
b11101000 W"
b11101000 #"
b11101000 8"
b11101000 %#
b1110111011111111 T#
b110100000000111100110011011101 k
b110100000000111100110011011101 Z"
b110100000000111100110011011101 }"
b110100000000111100110011011101 h
b110100000000111100110011011101 l"
b110100000000111100110011011101 /#
b11111111111111110011001110001000 e"
b11000 f"
b10100 g"
b10000 c
b10000 d"
b10000 0#
b10100 -
b10100 4
b10100 7
b10100 M
b10100 .#
b10100 L#
1$
#32000
0$
#33000
b11101110 E
b11101110 _"
b11101110 R#
b1100110011011101 v
b1100110011011101 C"
b1100110011011101 J"
b1100110011011101 Y"
b1100110011011101 f
b1100110011011101 u"
b1100110011011101 "#
b11 F
b11 w"
b11 N#
1D
b110001101000000010 .
b110001101000000010 5
b110001101000000010 8
b110001101000000010 ,#
1r"
b0 q"
b0 b
b0 z"
b0 ##
0a
1G
b111 m
b111 o"
b111 |"
b11101000 n
b11101000 n"
b11101000 {"
1t
b11 w
b11 B"
b11 I"
b11 X"
b1100110011011101 >"
1+
b11101110111011101110111011101110 )
b11101110111011101110111011101110 1
b11101110111011101110111011101110 K
b11101110111011101110111011101110 =#
b10 ,
b10 2
b10 L
b10 <#
b10 (
b10 /
b10 J
b10 >#
1'
b0 R
b0 i"
b0 @#
b0 D#
0P
b0 T
b0 j"
b0 ?#
b0 C#
b11000000000000000100 c"
b1 ["
b1 k"
b1 m"
b0 \"
b0 a"
b101000 h"
b11111111111111111100110011011101 ~
b11111111111111111100110011011101 2"
b11111111111111111100110011011101 G"
b11000 -
b11000 4
b11000 7
b11000 M
b11000 .#
b11000 L#
b10100000000000110000000000000001 k
b10100000000000110000000000000001 Z"
b10100000000000110000000000000001 }"
b10100000000000110000000000000001 h
b10100000000000110000000000000001 l"
b10100000000000110000000000000001 /#
b11100 e"
b11100 f"
b11000 g"
b10100 c
b10100 d"
b10100 0#
b110100000000111100110011011101 `
b110100000000111100110011011101 5"
b110100000000111100110011011101 '#
1u
b11 x
b11 -"
b11 +#
b1100110011011101 }
b1100110011011101 )"
b1100110011011101 H"
b1100110011011101 y
b1100110011011101 ."
b1100110011011101 *#
b1 ""
b1 7"
b1 &#
b100101 !"
b100101 '"
b100101 D"
b100101 W"
b100101 #"
b100101 8"
b100101 %#
b11101110 p
b11101110 P"
b11101110 6#
b10 q
b10 O"
b10 4#
b11101000 r
b11101000 L"
b11101000 1#
b0 S
b0 R"
b0 8#
0Q
b0 U
b0 Q"
b0 7#
b11101110 <
b11101110 I#
b11101110 P#
1;
b11 =
b11 H#
b11 O#
1$
#34000
0$
