test/inst_shift_test.vcd
$date
	Thu May 17 21:48:22 2018
$end
$version
	Icarus Verilog
$end
$timescale
	1ps
$end
$scope module inst_shift_test $end
$var reg 1 ! clk $end
$var reg 1 " rst $end
$scope module open_mips_min_sopc0 $end
$var wire 1 ! clk $end
$var wire 1 " rst $end
$var wire 1 # rom_ce $end
$var wire 1 $ ram_we $end
$var wire 4 % ram_sel [3:0] $end
$var wire 32 & ram_data_o [31:0] $end
$var wire 32 ' ram_data_i [31:0] $end
$var wire 1 ( ram_ce $end
$var wire 32 ) ram_addr [31:0] $end
$var wire 32 * inst_addr [31:0] $end
$var wire 32 + inst [31:0] $end
$scope module data_ram0 $end
$var wire 1 ! clk $end
$var wire 1 $ we $end
$var wire 4 , sel [3:0] $end
$var wire 10 - saddr [9:0] $end
$var wire 32 . data_i [31:0] $end
$var wire 1 ( ce $end
$var wire 32 / addr [31:0] $end
$var reg 32 0 data_o [31:0] $end
$upscope $end
$scope module inst_rom0 $end
$var wire 1 # ce $end
$var wire 32 1 addr [31:0] $end
$var reg 32 2 inst [31:0] $end
$upscope $end
$scope module openmips0 $end
$var wire 1 ! clk $end
$var wire 32 3 ram_data_i [31:0] $end
$var wire 32 4 rom_addr_o [31:0] $end
$var wire 32 5 rom_data_i [31:0] $end
$var wire 1 " rst $end
$var wire 1 6 stallreq_from_ex $end
$var wire 1 7 wb_whilo_i $end
$var wire 1 8 wb_we_i $end
$var wire 32 9 wb_wdata_i [31:0] $end
$var wire 5 : wb_waddr_i [4:0] $end
$var wire 32 ; wb_lo_i [31:0] $end
$var wire 32 < wb_hi_i [31:0] $end
$var wire 1 = wb_LLbit_we_i $end
$var wire 1 > wb_LLbit_value_i $end
$var wire 1 ? stallreq_from_id $end
$var wire 6 @ stall [5:0] $end
$var wire 1 # rom_ce_o $end
$var wire 1 A reg2_read $end
$var wire 32 B reg2_data [31:0] $end
$var wire 5 C reg2_addr [4:0] $end
$var wire 1 D reg1_read $end
$var wire 32 E reg1_data [31:0] $end
$var wire 5 F reg1_addr [4:0] $end
$var wire 1 $ ram_we $end
$var wire 4 G ram_sel [3:0] $end
$var wire 32 H ram_data_o [31:0] $end
$var wire 1 ( ram_ce $end
$var wire 32 I ram_addr [31:0] $end
$var wire 32 J pc [31:0] $end
$var wire 1 K mem_whilo_o $end
$var wire 1 L mem_whilo_i $end
$var wire 1 M mem_we_o $end
$var wire 1 N mem_we_i $end
$var wire 32 O mem_wdata_o [31:0] $end
$var wire 32 P mem_wdata_i [31:0] $end
$var wire 5 Q mem_waddr_o [4:0] $end
$var wire 5 R mem_waddr_i [4:0] $end
$var wire 32 S mem_lo_o [31:0] $end
$var wire 32 T mem_lo_i [31:0] $end
$var wire 32 U mem_hi_o [31:0] $end
$var wire 32 V mem_hi_i [31:0] $end
$var wire 1 W mem_LLbit_we_o $end
$var wire 1 X mem_LLbit_value_o $end
$var wire 32 Y lo_ex_o [31:0] $end
$var wire 1 Z idex_id_cur_in_delay_slot $end
$var wire 1 [ idex_ex_next_in_delay_slot $end
$var wire 32 \ idex_ex_link_addr [31:0] $end
$var wire 32 ] idex_ex_inst [31:0] $end
$var wire 1 ^ id_we_o $end
$var wire 5 _ id_waddr_o [4:0] $end
$var wire 32 ` id_pc_i [31:0] $end
$var wire 1 a id_pc_branch_flag $end
$var wire 32 b id_pc_branch_addr [31:0] $end
$var wire 32 c id_opv2_o [31:0] $end
$var wire 32 d id_opv1_o [31:0] $end
$var wire 32 e id_inst_i [31:0] $end
$var wire 1 f id_idex_next_in_delay_slot $end
$var wire 32 g id_idex_link_addr [31:0] $end
$var wire 32 h id_idex_inst [31:0] $end
$var wire 1 i id_idex_cur_in_delay_slot $end
$var wire 3 j id_alusel_o [2:0] $end
$var wire 8 k id_aluop_o [7:0] $end
$var wire 32 l hi_ex_o [31:0] $end
$var wire 32 m exmem_mem_opv2 [31:0] $end
$var wire 32 n exmem_mem_mem_addr [31:0] $end
$var wire 8 o exmem_mem_aluop [7:0] $end
$var wire 1 p ex_whilo_o $end
$var wire 1 q ex_we_o $end
$var wire 1 r ex_we_i $end
$var wire 32 s ex_wdata_o [31:0] $end
$var wire 5 t ex_waddr_o [4:0] $end
$var wire 5 u ex_waddr_i [4:0] $end
$var wire 32 v ex_opv2_i [31:0] $end
$var wire 32 w ex_opv1_i [31:0] $end
$var wire 32 x ex_lo_o [31:0] $end
$var wire 32 y ex_hi_o [31:0] $end
$var wire 32 z ex_exmem_opv2 [31:0] $end
$var wire 32 { ex_exmem_mem_addr [31:0] $end
$var wire 8 | ex_exmem_aluop [7:0] $end
$var wire 3 } ex_alusel_i [2:0] $end
$var wire 8 ~ ex_aluop_i [7:0] $end
$var wire 1 !" LLbitreg_mem_LLbit_o $end
$scope module LLbit_reg0 $end
$var wire 1 ! clk $end
$var wire 1 "" flush $end
$var wire 1 " rst $end
$var wire 1 = we $end
$var wire 1 > LLbit_i $end
$var reg 1 !" LLbit_o $end
$upscope $end
$scope module ctrl0 $end
$var wire 1 " rst $end
$var wire 1 6 stallreq_from_ex $end
$var wire 1 ? stallreq_from_id $end
$var reg 6 #" stall [5:0] $end
$upscope $end
$scope module ex0 $end
$var wire 8 $" aluop_o [7:0] $end
$var wire 32 %" opv1_i_not [31:0] $end
$var wire 32 &" opv2_o [31:0] $end
$var wire 1 " rst $end
$var wire 1 6 stallreq $end
$var wire 1 '" sum_overflow $end
$var wire 1 r we_i $end
$var wire 1 7 wb_whilo_i $end
$var wire 32 (" wb_lo_i [31:0] $end
$var wire 32 )" wb_hi_i [31:0] $end
$var wire 5 *" waddr_i [4:0] $end
$var wire 32 +" opv2_i [31:0] $end
$var wire 32 ," opv1_i [31:0] $end
$var wire 1 K mem_whilo_i $end
$var wire 32 -" mem_lo_i [31:0] $end
$var wire 32 ." mem_hi_i [31:0] $end
$var wire 32 /" mem_addr_o [31:0] $end
$var wire 32 0" lo_i [31:0] $end
$var wire 32 1" link_addr_i [31:0] $end
$var wire 32 2" inst_i [31:0] $end
$var wire 32 3" hi_i [31:0] $end
$var wire 1 [ cur_in_delay_slot_i $end
$var wire 3 4" alusel_i [2:0] $end
$var wire 8 5" aluop_i [7:0] $end
$var reg 32 6" HI [31:0] $end
$var reg 32 7" LO [31:0] $end
$var reg 32 8" arith_res [31:0] $end
$var reg 32 9" hi_o [31:0] $end
$var reg 32 :" lo_o [31:0] $end
$var reg 32 ;" logic_res [31:0] $end
$var reg 32 <" move_res [31:0] $end
$var reg 64 =" mul_res [63:0] $end
$var reg 32 >" shift_res [31:0] $end
$var reg 5 ?" waddr_o [4:0] $end
$var reg 32 @" wdata_o [31:0] $end
$var reg 1 q we_o $end
$var reg 1 p whilo_o $end
$upscope $end
$scope module ex_mem0 $end
$var wire 1 ! clk $end
$var wire 8 A" ex_aluop [7:0] $end
$var wire 32 B" ex_hi [31:0] $end
$var wire 32 C" ex_lo [31:0] $end
$var wire 32 D" ex_mem_addr [31:0] $end
$var wire 32 E" ex_opv2 [31:0] $end
$var wire 5 F" ex_waddr [4:0] $end
$var wire 32 G" ex_wdata [31:0] $end
$var wire 1 q ex_we $end
$var wire 1 p ex_whilo $end
$var wire 1 " rst $end
$var wire 6 H" stall [5:0] $end
$var reg 8 I" mem_aluop [7:0] $end
$var reg 32 J" mem_hi [31:0] $end
$var reg 32 K" mem_lo [31:0] $end
$var reg 32 L" mem_mem_addr [31:0] $end
$var reg 32 M" mem_opv2 [31:0] $end
$var reg 5 N" mem_waddr [4:0] $end
$var reg 32 O" mem_wdata [31:0] $end
$var reg 1 N mem_we $end
$var reg 1 L mem_whilo $end
$upscope $end
$scope module hilo_reg0 $end
$var wire 1 ! clk $end
$var wire 1 " rst $end
$var wire 1 7 we $end
$var wire 32 P" lo_i [31:0] $end
$var wire 32 Q" hi_i [31:0] $end
$var reg 32 R" hi_o [31:0] $end
$var reg 32 S" lo_o [31:0] $end
$upscope $end
$scope module id0 $end
$var wire 1 i cur_in_delay_slot_o $end
$var wire 8 T" ex_aluop_i [7:0] $end
$var wire 5 U" ex_waddr_i [4:0] $end
$var wire 32 V" ex_wdata_i [31:0] $end
$var wire 1 q ex_we_i $end
$var wire 32 W" inst_o [31:0] $end
$var wire 1 " rst $end
$var wire 1 ? stallreq $end
$var wire 32 X" sext_imm [31:0] $end
$var wire 5 Y" sa [4:0] $end
$var wire 5 Z" rt [4:0] $end
$var wire 5 [" rs [4:0] $end
$var wire 32 \" reg2_data_i [31:0] $end
$var wire 32 ]" reg1_data_i [31:0] $end
$var wire 5 ^" rd [4:0] $end
$var wire 1 _" pre_inst_is_load $end
$var wire 32 `" pc_j [31:0] $end
$var wire 32 a" pc_i [31:0] $end
$var wire 32 b" pc_b [31:0] $end
$var wire 32 c" pc8 [31:0] $end
$var wire 32 d" pc4 [31:0] $end
$var wire 6 e" op [5:0] $end
$var wire 1 M mem_we_i $end
$var wire 32 f" mem_wdata_i [31:0] $end
$var wire 5 g" mem_waddr_i [4:0] $end
$var wire 16 h" inst_imm [15:0] $end
$var wire 32 i" inst_i [31:0] $end
$var wire 6 j" funct [5:0] $end
$var wire 1 Z cur_in_delay_slot_i $end
$var reg 8 k" aluop_o [7:0] $end
$var reg 3 l" alusel_o [2:0] $end
$var reg 32 m" branch_addr_o [31:0] $end
$var reg 1 a branch_flag_o $end
$var reg 32 n" imm [31:0] $end
$var reg 1 o" inst_valid $end
$var reg 32 p" link_addr_o [31:0] $end
$var reg 1 f next_in_delay_slot_o $end
$var reg 32 q" opv1_o [31:0] $end
$var reg 32 r" opv2_o [31:0] $end
$var reg 5 s" reg1_addr_o [4:0] $end
$var reg 1 D reg1_re_o $end
$var reg 5 t" reg2_addr_o [4:0] $end
$var reg 1 A reg2_re_o $end
$var reg 1 u" stallreq_for_reg1_load_dependant $end
$var reg 1 v" stallreq_for_reg2_load_dependant $end
$var reg 5 w" waddr_o [4:0] $end
$var reg 1 ^ we_o $end
$upscope $end
$scope module id_ex0 $end
$var wire 1 ! clk $end
$var wire 8 x" id_aluop [7:0] $end
$var wire 3 y" id_alusel [2:0] $end
$var wire 1 i id_cur_in_delay_slot $end
$var wire 32 z" id_inst [31:0] $end
$var wire 32 {" id_link_addr [31:0] $end
$var wire 32 |" id_reg1 [31:0] $end
$var wire 32 }" id_reg2 [31:0] $end
$var wire 5 ~" id_waddr [4:0] $end
$var wire 1 ^ id_we $end
$var wire 1 f next_in_delay_slot_i $end
$var wire 1 " rst $end
$var wire 6 !# stall [5:0] $end
$var reg 8 "# ex_aluop [7:0] $end
$var reg 3 ## ex_alusel [2:0] $end
$var reg 1 [ ex_cur_in_delay_slot $end
$var reg 32 $# ex_inst [31:0] $end
$var reg 32 %# ex_link_addr [31:0] $end
$var reg 32 &# ex_reg1 [31:0] $end
$var reg 32 '# ex_reg2 [31:0] $end
$var reg 5 (# ex_waddr [4:0] $end
$var reg 1 r ex_we $end
$var reg 1 Z next_in_delay_slot_o $end
$upscope $end
$scope module if_id0 $end
$var wire 1 ! clk $end
$var wire 32 )# if_inst [31:0] $end
$var wire 1 " rst $end
$var wire 6 *# stall [5:0] $end
$var wire 32 +# if_pc [31:0] $end
$var reg 32 ,# id_inst [31:0] $end
$var reg 32 -# id_pc [31:0] $end
$upscope $end
$scope module mem0 $end
$var wire 1 !" LLbit_i $end
$var wire 8 .# aluop_i [7:0] $end
$var wire 32 /# hi_i [31:0] $end
$var wire 32 0# lo_i [31:0] $end
$var wire 32 1# mem_addr_i [31:0] $end
$var wire 32 2# mem_data_i [31:0] $end
$var wire 32 3# opv2_i [31:0] $end
$var wire 1 " rst $end
$var wire 5 4# waddr_i [4:0] $end
$var wire 32 5# wdata_i [31:0] $end
$var wire 1 N we_i $end
$var wire 1 L whilo_i $end
$var wire 1 = wb_LLbit_we_i $end
$var wire 1 > wb_LLbit_value_i $end
$var reg 1 6# LLbit $end
$var reg 1 X LLbit_value_o $end
$var reg 1 W LLbit_we_o $end
$var reg 32 7# hi_o [31:0] $end
$var reg 32 8# lo_o [31:0] $end
$var reg 32 9# mem_addr_o [31:0] $end
$var reg 1 ( mem_ce_o $end
$var reg 32 :# mem_data_o [31:0] $end
$var reg 4 ;# mem_sel_o [3:0] $end
$var reg 1 $ mem_we_o $end
$var reg 5 <# waddr_o [4:0] $end
$var reg 32 =# wdata_o [31:0] $end
$var reg 1 M we_o $end
$var reg 1 K whilo_o $end
$upscope $end
$scope module mem_wb0 $end
$var wire 1 ! clk $end
$var wire 1 X mem_LLbit_value $end
$var wire 1 W mem_LLbit_we $end
$var wire 32 ># mem_hi [31:0] $end
$var wire 32 ?# mem_lo [31:0] $end
$var wire 5 @# mem_waddr [4:0] $end
$var wire 32 A# mem_wdata [31:0] $end
$var wire 1 M mem_we $end
$var wire 1 K mem_whilo $end
$var wire 1 " rst $end
$var wire 6 B# stall [5:0] $end
$var reg 1 > wb_LLbit_value $end
$var reg 1 = wb_LLbit_we $end
$var reg 32 C# wb_hi [31:0] $end
$var reg 32 D# wb_lo [31:0] $end
$var reg 5 E# wb_waddr [4:0] $end
$var reg 32 F# wb_wdata [31:0] $end
$var reg 1 8 wb_we $end
$var reg 1 7 wb_whilo $end
$upscope $end
$scope module pc_reg0 $end
$var wire 32 G# branch_addr_i [31:0] $end
$var wire 1 a branch_flag_i $end
$var wire 1 ! clk $end
$var wire 1 " rst $end
$var wire 6 H# stall [5:0] $end
$var reg 1 # ce $end
$var reg 32 I# pc [31:0] $end
$upscope $end
$scope module regfile1 $end
$var wire 1 ! clk $end
$var wire 5 J# raddr1 [4:0] $end
$var wire 5 K# raddr2 [4:0] $end
$var wire 1 D re1 $end
$var wire 1 A re2 $end
$var wire 1 " rst $end
$var wire 5 L# waddr [4:0] $end
$var wire 32 M# wdata [31:0] $end
$var wire 1 8 we $end
$var reg 32 N# rdata1 [31:0] $end
$var reg 32 O# rdata2 [31:0] $end
$upscope $end
$upscope $end
$upscope $end
$upscope $end
$scope module inst_shift_test $end
$scope module open_mips_min_sopc0 $end
$scope module openmips0 $end
$scope module regfile1 $end
$var reg 32 P# \regs[2] [31:0] $end
$upscope $end
$upscope $end
$upscope $end
$upscope $end
$scope module inst_shift_test $end
$scope module open_mips_min_sopc0 $end
$scope module openmips0 $end
$scope module regfile1 $end
$var reg 32 Q# \regs[5] [31:0] $end
$upscope $end
$upscope $end
$upscope $end
$upscope $end
$scope module inst_shift_test $end
$scope module open_mips_min_sopc0 $end
$scope module openmips0 $end
$scope module regfile1 $end
$var reg 32 R# \regs[7] [31:0] $end
$upscope $end
$upscope $end
$upscope $end
$upscope $end
$scope module inst_shift_test $end
$scope module open_mips_min_sopc0 $end
$scope module openmips0 $end
$scope module regfile1 $end
$var reg 32 S# \regs[8] [31:0] $end
$upscope $end
$upscope $end
$upscope $end
$upscope $end
$enddefinitions $end
#0
$dumpvars
bx S#
bx R#
bx Q#
bx P#
b0 O#
b0 N#
bx M#
bx L#
bx K#
bx J#
bx I#
b0 H#
bx G#
bx F#
bx E#
bx D#
bx C#
b0 B#
b0 A#
b0 @#
b0 ?#
b0 >#
b0 =#
b0 <#
b0 ;#
b0 :#
b0 9#
b0 8#
b0 7#
06#
bx 5#
bx 4#
bx 3#
b0 2#
bx 1#
bx 0#
bx /#
bx .#
bx -#
bx ,#
bx +#
b0 *#
bx )#
bx (#
bx '#
bx &#
bx %#
bx $#
bx ##
bx "#
b0 !#
bx ~"
b0 }"
b0 |"
bx {"
bx z"
b0 y"
b0 x"
bx w"
0v"
0u"
bx t"
bx s"
b0 r"
b0 q"
bx p"
0o"
b0 n"
bx m"
b0 l"
b0 k"
bx j"
bx i"
bx h"
b0 g"
b0 f"
bx e"
bx d"
bx c"
bx b"
bx a"
bx00 `"
x_"
bx ^"
b0 ]"
b0 \"
bx ["
bx Z"
bx Y"
bx X"
bx W"
b0 V"
bx U"
bx T"
bx S"
bx R"
bx Q"
bx P"
bx O"
bx N"
bx M"
bx L"
bx K"
bx J"
bx I"
b0 H"
b0 G"
bx F"
bx E"
bx D"
b0 C"
b0 B"
bx A"
b0 @"
bx ?"
b0 >"
b0 ="
b0 <"
b0 ;"
b0 :"
b0 9"
b0 8"
b0 7"
b0 6"
bx 5"
bx 4"
bx 3"
bx 2"
bx 1"
bx 0"
bx /"
b0 ."
b0 -"
bx ,"
bx +"
bx *"
bx )"
bx ("
0'"
bx &"
bx %"
bx $"
b0 #"
0""
x!"
bx ~
bx }
bx |
bx {
bx z
b0 y
b0 x
bx w
bx v
bx u
bx t
b0 s
xr
xq
0p
bx o
bx n
bx m
bx l
b0 k
b0 j
xi
bx h
bx g
xf
bx e
b0 d
b0 c
bx b
xa
bx `
bx _
0^
bx ]
bx \
x[
xZ
bx Y
0X
0W
bx V
b0 U
bx T
b0 S
bx R
b0 Q
bx P
b0 O
xN
0M
xL
0K
bx J
b0 I
b0 H
b0 G
bx F
b0 E
0D
bx C
b0 B
0A
b0 @
0?
x>
x=
bx <
bx ;
bx :
bx 9
x8
x7
06
bx 5
bx 4
b0 3
bx 2
bx 1
b0 0
b0 /
b0 .
b0 -
b0 ,
bx +
bx *
b0 )
0(
b0 '
b0 &
b0 %
0$
x#
1"
0!
$end
#1000
b0 _
b0 w"
b0 ~"
b0 C
b0 t"
b0 K#
b0 F
b0 s"
b0 J#
b0 +
b0 2
b0 5
b0 )#
0q
b0 t
b0 ?"
b0 F"
b0 U"
0_"
b100 b"
b0 X"
b0 h"
b0 j"
b0 Y"
b0 ^"
b0 Z"
b0 ["
b0 e"
b0 `"
b0 {
b0 /"
b0 D"
b11111111111111111111111111111111 %"
0#
b0 h
b0 W"
b0 z"
b0 e
b0 i"
b0 ,#
b1000 c"
b100 d"
b0 `
b0 a"
b0 -#
b0 ]
b0 2"
b0 $#
0i
0Z
b0 \
b0 1"
b0 %#
0[
0r
b0 u
b0 *"
b0 (#
b0 z
b0 &"
b0 E"
b0 v
b0 +"
b0 '#
b0 w
b0 ,"
b0 &#
b0 }
b0 4"
b0 ##
b0 |
b0 $"
b0 A"
b0 T"
b0 ~
b0 5"
b0 "#
b0 m
b0 M"
b0 3#
b0 n
b0 L"
b0 1#
b0 o
b0 I"
b0 .#
b0 T
b0 K"
b0 0#
b0 V
b0 J"
b0 /#
0L
b0 P
b0 O"
b0 5#
0N
b0 R
b0 N"
b0 4#
0>
0=
b0 ;
b0 ("
b0 P"
b0 D#
b0 <
b0 )"
b0 Q"
b0 C#
07
b0 9
b0 F#
b0 M#
08
b0 :
b0 E#
b0 L#
b0 Y
b0 0"
b0 S"
b0 l
b0 3"
b0 R"
0!"
1!
#2000
0!
#3000
b0 *
b0 1
b0 4
b0 J
b0 +#
b0 I#
1!
#4000
0!
#5000
1!
#6000
0!
#7000
1!
#8000
0!
#9000
1!
#10000
0!
#11000
1!
#12000
0!
#13000
1!
#14000
0!
#15000
1!
#16000
0!
#17000
1!
#18000
0!
#19000
1!
#20000
1o"
1^
1A
b10 j
b10 l"
b10 y"
b1111100 k
b1111100 k"
b1111100 x"
0f
b0 g
b0 p"
b0 {"
b0 b
b0 m"
b0 G#
0a
0!
0"
#21000
b111100000000100000010000000100 +
b111100000000100000010000000100 2
b111100000000100000010000000100 5
b111100000000100000010000000100 )#
1q
1#
1r
b10 }
b10 4"
b10 ##
b1111100 |
b1111100 $"
b1111100 A"
b1111100 T"
b1111100 ~
b1111100 5"
b1111100 "#
1!
#22000
0!
#23000
b100000001000000000000000000 c
b100000001000000000000000000 r"
b100000001000000000000000000 }"
b100000001000000000000000000 n"
b10 _
b10 w"
b10 ~"
1D
1o"
1^
0A
b1 j
b1 l"
b1 y"
b100101 k
b100101 k"
b100101 x"
1M
b110100010000100000010000000100 +
b110100010000100000010000000100 2
b110100010000100000010000000100 5
b110100010000100000010000000100 )#
b1000000010100 b"
b10000001000000010000 `"
b10000000100 X"
b10000000100 h"
b100 j"
b10000 Y"
b10 Z"
b1111 e"
b1111100 o
b1111100 I"
b1111100 .#
1N
b111100000000100000010000000100 h
b111100000000100000010000000100 W"
b111100000000100000010000000100 z"
b111100000000100000010000000100 e
b111100000000100000010000000100 i"
b111100000000100000010000000100 ,#
b100 *
b100 1
b100 4
b100 J
b100 +#
b100 I#
1!
#24000
0!
#25000
b100000001000000000000000000 d
b100000001000000000000000000 q"
b100000001000000000000000000 |"
bx E
bx ]"
bx N#
b10000000100 c
b10000000100 r"
b10000000100 }"
b100000001000000000000000000 s
b100000001000000000000000000 @"
b100000001000000000000000000 G"
b100000001000000000000000000 V"
b10 F
b10 s"
b10 J#
b110100000001110000000000000111 +
b110100000001110000000000000111 2
b110100000001110000000000000111 5
b110100000001110000000000000111 )#
1o"
b10000000100 n"
b10 _
b10 w"
b10 ~"
1^
1D
b1 j
b1 l"
b1 y"
b100101 k
b100101 k"
b100101 x"
b10 t
b10 ?"
b10 F"
b10 U"
b100000001000000000000000000 ;"
b1000010000001000000010000 `"
b10 ["
b1101 e"
b10000000100 {
b10000000100 /"
b10000000100 D"
b1000 *
b1000 1
b1000 4
b1000 J
b1000 +#
b1000 I#
b110100010000100000010000000100 h
b110100010000100000010000000100 W"
b110100010000100000010000000100 z"
b110100010000100000010000000100 e
b110100010000100000010000000100 i"
b110100010000100000010000000100 ,#
b1000000011000 b"
b1100 c"
b1000 d"
b100 `
b100 a"
b100 -#
b111100000000100000010000000100 ]
b111100000000100000010000000100 2"
b111100000000100000010000000100 $#
b10 u
b10 *"
b10 (#
b100000001000000000000000000 z
b100000001000000000000000000 &"
b100000001000000000000000000 E"
b100000001000000000000000000 v
b100000001000000000000000000 +"
b100000001000000000000000000 '#
b1 }
b1 4"
b1 ##
b100101 |
b100101 $"
b100101 A"
b100101 T"
b100101 ~
b100101 5"
b100101 "#
18
1!
#26000
0!
#27000
b100000001000000010000000100 s
b100000001000000010000000100 @"
b100000001000000010000000100 G"
b100000001000000010000000100 V"
b111 c
b111 r"
b111 }"
b0 d
b0 q"
b0 |"
b0 E
b0 ]"
b0 N#
b100000001000000000000000000 O
b100000001000000000000000000 f"
b100000001000000000000000000 =#
b100000001000000000000000000 A#
b10 Q
b10 g"
b10 <#
b10 @#
b100000001000000010000000100 ;"
1o"
b111 n"
b111 _
b111 w"
b111 ~"
1^
b0 F
b0 s"
b0 J#
1D
b1 j
b1 l"
b1 y"
b100101 k
b100101 k"
b100101 x"
b110100000001010000000000000101 +
b110100000001010000000000000101 2
b110100000001010000000000000101 5
b110100000001010000000000000101 )#
b11111011111110111111111111111111 %"
b111000000000000011100 `"
b111 X"
b111 h"
b111 j"
b0 Y"
b111 Z"
b0 ["
b100000001000000000000000000 m
b100000001000000000000000000 M"
b100000001000000000000000000 3#
b10000000100 n
b10000000100 L"
b10000000100 1#
b100101 o
b100101 I"
b100101 .#
b100000001000000000000000000 P
b100000001000000000000000000 O"
b100000001000000000000000000 5#
b10 R
b10 N"
b10 4#
b110100010000100000010000000100 ]
b110100010000100000010000000100 2"
b110100010000100000010000000100 $#
b10000000100 z
b10000000100 &"
b10000000100 E"
b10000000100 v
b10000000100 +"
b10000000100 '#
b100000001000000010000000100 {
b100000001000000010000000100 /"
b100000001000000010000000100 D"
b100000001000000000000000000 w
b100000001000000000000000000 ,"
b100000001000000000000000000 &#
b110100000001110000000000000111 h
b110100000001110000000000000111 W"
b110100000001110000000000000111 z"
b110100000001110000000000000111 e
b110100000001110000000000000111 i"
b110100000001110000000000000111 ,#
b101000 b"
b10000 c"
b1100 d"
b1000 `
b1000 a"
b1000 -#
b1100 *
b1100 1
b1100 4
b1100 J
b1100 +#
b1100 I#
1!
#28000
0!
#29000
b111 s
b111 @"
b111 G"
b111 V"
b101 c
b101 r"
b101 }"
b110100000010000000000000001000 +
b110100000010000000000000001000 2
b110100000010000000000000001000 5
b110100000010000000000000001000 )#
1o"
b101 n"
b101 _
b101 w"
b101 ~"
1^
1D
b1 j
b1 l"
b1 y"
b100101 k
b100101 k"
b100101 x"
b111 t
b111 ?"
b111 F"
b111 U"
b111 ;"
b100000001000000010000000100 O
b100000001000000010000000100 f"
b100000001000000010000000100 =#
b100000001000000010000000100 A#
b101000000000000010100 `"
b101 X"
b101 h"
b101 j"
b101 Z"
b11111111111111111111111111111111 %"
b10000 *
b10000 1
b10000 4
b10000 J
b10000 +#
b10000 I#
b110100000001010000000000000101 h
b110100000001010000000000000101 W"
b110100000001010000000000000101 z"
b110100000001010000000000000101 e
b110100000001010000000000000101 i"
b110100000001010000000000000101 ,#
b100100 b"
b10100 c"
b10000 d"
b1100 `
b1100 a"
b1100 -#
b110100000001110000000000000111 ]
b110100000001110000000000000111 2"
b110100000001110000000000000111 $#
b111 u
b111 *"
b111 (#
b111 z
b111 &"
b111 E"
b111 v
b111 +"
b111 '#
b111 {
b111 /"
b111 D"
b0 w
b0 ,"
b0 &#
b10000000100 m
b10000000100 M"
b10000000100 3#
b100000001000000010000000100 n
b100000001000000010000000100 L"
b100000001000000010000000100 1#
b100000001000000010000000100 P
b100000001000000010000000100 O"
b100000001000000010000000100 5#
b100000001000000000000000000 9
b100000001000000000000000000 F#
b100000001000000000000000000 M#
b10 :
b10 E#
b10 L#
1!
#30000
0!
#31000
b101 s
b101 @"
b101 G"
b101 V"
b1000 c
b1000 r"
b1000 }"
b111 O
b111 f"
b111 =#
b111 A#
b111 Q
b111 g"
b111 <#
b111 @#
b101 t
b101 ?"
b101 F"
b101 U"
b101 ;"
1o"
b1000 n"
b1000 _
b1000 w"
b1000 ~"
1^
1D
b1 j
b1 l"
b1 y"
b100101 k
b100101 k"
b100101 x"
b1111 +
b1111 2
b1111 5
b1111 )#
b101 {
b101 /"
b101 D"
b1000000000000000100000 `"
b1000 X"
b1000 h"
b1000 j"
b1000 Z"
b100000001000000010000000100 9
b100000001000000010000000100 F#
b100000001000000010000000100 M#
b111 m
b111 M"
b111 3#
b111 n
b111 L"
b111 1#
b111 P
b111 O"
b111 5#
b111 R
b111 N"
b111 4#
b110100000001010000000000000101 ]
b110100000001010000000000000101 2"
b110100000001010000000000000101 $#
b101 u
b101 *"
b101 (#
b101 z
b101 &"
b101 E"
b101 v
b101 +"
b101 '#
b100000001000000000000000000 P#
b110100000010000000000000001000 h
b110100000010000000000000001000 W"
b110100000010000000000000001000 z"
b110100000010000000000000001000 e
b110100000010000000000000001000 i"
b110100000010000000000000001000 ,#
b110100 b"
b11000 c"
b10100 d"
b10000 `
b10000 a"
b10000 -#
b10100 *
b10100 1
b10100 4
b10100 J
b10100 +#
b10100 I#
1!
#32000
0!
#33000
b1000 s
b1000 @"
b1000 G"
b1000 V"
b0 c
b0 r"
b0 }"
b100001001000000000 +
b100001001000000000 2
b100001001000000000 5
b100001001000000000 )#
1o"
b0 n"
b0 _
b0 w"
b0 ~"
0^
0D
b1 j
b1 l"
b1 y"
b0 k
b0 k"
b0 x"
b1000 t
b1000 ?"
b1000 F"
b1000 U"
b1000 ;"
b101 O
b101 f"
b101 =#
b101 A#
b101 Q
b101 g"
b101 <#
b101 @#
b111100 `"
b1111 X"
b1111 h"
b1111 j"
b0 Z"
b0 e"
b1000 {
b1000 /"
b1000 D"
b11000 *
b11000 1
b11000 4
b11000 J
b11000 +#
b11000 I#
b1111 h
b1111 W"
b1111 z"
b1111 e
b1111 i"
b1111 ,#
b1010100 b"
b11100 c"
b11000 d"
b10100 `
b10100 a"
b10100 -#
b100000001000000010000000100 P#
b110100000010000000000000001000 ]
b110100000010000000000000001000 2"
b110100000010000000000000001000 $#
b1000 u
b1000 *"
b1000 (#
b1000 z
b1000 &"
b1000 E"
b1000 v
b1000 +"
b1000 '#
b101 m
b101 M"
b101 3#
b101 n
b101 L"
b101 1#
b101 P
b101 O"
b101 5#
b101 R
b101 N"
b101 4#
b111 9
b111 F#
b111 M#
b111 :
b111 E#
b111 L#
1!
#34000
0!
#35000
b100000001000000010000000100 c
b100000001000000010000000100 r"
b100000001000000010000000100 }"
b100000001000000010000000100 B
b100000001000000010000000100 \"
b100000001000000010000000100 O#
b1000 d
b1000 q"
b1000 |"
b0 s
b0 @"
b0 G"
b0 V"
b1000 n"
b10 _
b10 w"
b10 ~"
1^
b10 C
b10 t"
b10 K#
1A
b1111100 k
b1111100 k"
b1111100 x"
b1000 O
b1000 f"
b1000 =#
b1000 A#
b1000 Q
b1000 g"
b1000 <#
b1000 @#
0q
b0 t
b0 ?"
b0 F"
b0 U"
b0 ;"
1o"
b10 j
b10 l"
b10 y"
b111000100001000000000100 +
b111000100001000000000100 2
b111000100001000000000100 5
b111000100001000000000100 )#
b1111 {
b1111 /"
b1111 D"
b10000100100000000000 `"
b1001000000000 X"
b1001000000000 h"
b0 j"
b1000 Y"
b10 ^"
b10 Z"
b101 9
b101 F#
b101 M#
b101 :
b101 E#
b101 L#
b1000 m
b1000 M"
b1000 3#
b1000 n
b1000 L"
b1000 1#
b1000 P
b1000 O"
b1000 5#
b1000 R
b1000 N"
b1000 4#
b1111 ]
b1111 2"
b1111 $#
0r
b0 u
b0 *"
b0 (#
b0 z
b0 &"
b0 E"
b0 v
b0 +"
b0 '#
b0 |
b0 $"
b0 A"
b0 T"
b0 ~
b0 5"
b0 "#
b111 R#
b100001001000000000 h
b100001001000000000 W"
b100001001000000000 z"
b100001001000000000 e
b100001001000000000 i"
b100001001000000000 ,#
b100100000011100 b"
b100000 c"
b11100 d"
b11000 `
b11000 a"
b11000 -#
b11100 *
b11100 1
b11100 4
b11100 J
b11100 +#
b11100 I#
1!
#36000
0!
