test/inst_ll_sc_test.vcd
$date
	Thu May 17 21:48:22 2018
$end
$version
	Icarus Verilog
$end
$timescale
	1ps
$end
$scope module inst_ll_sc_test $end
$var wire 32 ! mem0x0008 [31:0] $end
$var wire 32 " mem0x0004 [31:0] $end
$var wire 32 # mem0x0000 [31:0] $end
$var reg 1 $ clk $end
$var reg 1 % rst $end
$scope module open_mips_min_sopc0 $end
$var wire 1 $ clk $end
$var wire 1 % rst $end
$var wire 1 & rom_ce $end
$var wire 1 ' ram_we $end
$var wire 4 ( ram_sel [3:0] $end
$var wire 32 ) ram_data_o [31:0] $end
$var wire 32 * ram_data_i [31:0] $end
$var wire 1 + ram_ce $end
$var wire 32 , ram_addr [31:0] $end
$var wire 32 - inst_addr [31:0] $end
$var wire 32 . inst [31:0] $end
$scope module data_ram0 $end
$var wire 1 $ clk $end
$var wire 1 ' we $end
$var wire 4 / sel [3:0] $end
$var wire 10 0 saddr [9:0] $end
$var wire 32 1 data_i [31:0] $end
$var wire 1 + ce $end
$var wire 32 2 addr [31:0] $end
$var reg 32 3 data_o [31:0] $end
$upscope $end
$scope module inst_rom0 $end
$var wire 1 & ce $end
$var wire 32 4 addr [31:0] $end
$var reg 32 5 inst [31:0] $end
$upscope $end
$scope module openmips0 $end
$var wire 1 $ clk $end
$var wire 32 6 ram_data_i [31:0] $end
$var wire 32 7 rom_addr_o [31:0] $end
$var wire 32 8 rom_data_i [31:0] $end
$var wire 1 % rst $end
$var wire 1 9 stallreq_from_ex $end
$var wire 1 : wb_whilo_i $end
$var wire 1 ; wb_we_i $end
$var wire 32 < wb_wdata_i [31:0] $end
$var wire 5 = wb_waddr_i [4:0] $end
$var wire 32 > wb_lo_i [31:0] $end
$var wire 32 ? wb_hi_i [31:0] $end
$var wire 1 @ wb_LLbit_we_i $end
$var wire 1 A wb_LLbit_value_i $end
$var wire 1 B stallreq_from_id $end
$var wire 6 C stall [5:0] $end
$var wire 1 & rom_ce_o $end
$var wire 1 D reg2_read $end
$var wire 32 E reg2_data [31:0] $end
$var wire 5 F reg2_addr [4:0] $end
$var wire 1 G reg1_read $end
$var wire 32 H reg1_data [31:0] $end
$var wire 5 I reg1_addr [4:0] $end
$var wire 1 ' ram_we $end
$var wire 4 J ram_sel [3:0] $end
$var wire 32 K ram_data_o [31:0] $end
$var wire 1 + ram_ce $end
$var wire 32 L ram_addr [31:0] $end
$var wire 32 M pc [31:0] $end
$var wire 1 N mem_whilo_o $end
$var wire 1 O mem_whilo_i $end
$var wire 1 P mem_we_o $end
$var wire 1 Q mem_we_i $end
$var wire 32 R mem_wdata_o [31:0] $end
$var wire 32 S mem_wdata_i [31:0] $end
$var wire 5 T mem_waddr_o [4:0] $end
$var wire 5 U mem_waddr_i [4:0] $end
$var wire 32 V mem_lo_o [31:0] $end
$var wire 32 W mem_lo_i [31:0] $end
$var wire 32 X mem_hi_o [31:0] $end
$var wire 32 Y mem_hi_i [31:0] $end
$var wire 1 Z mem_LLbit_we_o $end
$var wire 1 [ mem_LLbit_value_o $end
$var wire 32 \ lo_ex_o [31:0] $end
$var wire 1 ] idex_id_cur_in_delay_slot $end
$var wire 1 ^ idex_ex_next_in_delay_slot $end
$var wire 32 _ idex_ex_link_addr [31:0] $end
$var wire 32 ` idex_ex_inst [31:0] $end
$var wire 1 a id_we_o $end
$var wire 5 b id_waddr_o [4:0] $end
$var wire 32 c id_pc_i [31:0] $end
$var wire 1 d id_pc_branch_flag $end
$var wire 32 e id_pc_branch_addr [31:0] $end
$var wire 32 f id_opv2_o [31:0] $end
$var wire 32 g id_opv1_o [31:0] $end
$var wire 32 h id_inst_i [31:0] $end
$var wire 1 i id_idex_next_in_delay_slot $end
$var wire 32 j id_idex_link_addr [31:0] $end
$var wire 32 k id_idex_inst [31:0] $end
$var wire 1 l id_idex_cur_in_delay_slot $end
$var wire 3 m id_alusel_o [2:0] $end
$var wire 8 n id_aluop_o [7:0] $end
$var wire 32 o hi_ex_o [31:0] $end
$var wire 32 p exmem_mem_opv2 [31:0] $end
$var wire 32 q exmem_mem_mem_addr [31:0] $end
$var wire 8 r exmem_mem_aluop [7:0] $end
$var wire 1 s ex_whilo_o $end
$var wire 1 t ex_we_o $end
$var wire 1 u ex_we_i $end
$var wire 32 v ex_wdata_o [31:0] $end
$var wire 5 w ex_waddr_o [4:0] $end
$var wire 5 x ex_waddr_i [4:0] $end
$var wire 32 y ex_opv2_i [31:0] $end
$var wire 32 z ex_opv1_i [31:0] $end
$var wire 32 { ex_lo_o [31:0] $end
$var wire 32 | ex_hi_o [31:0] $end
$var wire 32 } ex_exmem_opv2 [31:0] $end
$var wire 32 ~ ex_exmem_mem_addr [31:0] $end
$var wire 8 !" ex_exmem_aluop [7:0] $end
$var wire 3 "" ex_alusel_i [2:0] $end
$var wire 8 #" ex_aluop_i [7:0] $end
$var wire 1 $" LLbitreg_mem_LLbit_o $end
$scope module LLbit_reg0 $end
$var wire 1 $ clk $end
$var wire 1 %" flush $end
$var wire 1 % rst $end
$var wire 1 @ we $end
$var wire 1 A LLbit_i $end
$var reg 1 $" LLbit_o $end
$upscope $end
$scope module ctrl0 $end
$var wire 1 % rst $end
$var wire 1 9 stallreq_from_ex $end
$var wire 1 B stallreq_from_id $end
$var reg 6 &" stall [5:0] $end
$upscope $end
$scope module ex0 $end
$var wire 8 '" aluop_o [7:0] $end
$var wire 32 (" opv1_i_not [31:0] $end
$var wire 32 )" opv2_o [31:0] $end
$var wire 1 % rst $end
$var wire 1 9 stallreq $end
$var wire 1 *" sum_overflow $end
$var wire 1 u we_i $end
$var wire 1 : wb_whilo_i $end
$var wire 32 +" wb_lo_i [31:0] $end
$var wire 32 ," wb_hi_i [31:0] $end
$var wire 5 -" waddr_i [4:0] $end
$var wire 32 ." opv2_i [31:0] $end
$var wire 32 /" opv1_i [31:0] $end
$var wire 1 N mem_whilo_i $end
$var wire 32 0" mem_lo_i [31:0] $end
$var wire 32 1" mem_hi_i [31:0] $end
$var wire 32 2" mem_addr_o [31:0] $end
$var wire 32 3" lo_i [31:0] $end
$var wire 32 4" link_addr_i [31:0] $end
$var wire 32 5" inst_i [31:0] $end
$var wire 32 6" hi_i [31:0] $end
$var wire 1 ^ cur_in_delay_slot_i $end
$var wire 3 7" alusel_i [2:0] $end
$var wire 8 8" aluop_i [7:0] $end
$var reg 32 9" HI [31:0] $end
$var reg 32 :" LO [31:0] $end
$var reg 32 ;" arith_res [31:0] $end
$var reg 32 <" hi_o [31:0] $end
$var reg 32 =" lo_o [31:0] $end
$var reg 32 >" logic_res [31:0] $end
$var reg 32 ?" move_res [31:0] $end
$var reg 64 @" mul_res [63:0] $end
$var reg 32 A" shift_res [31:0] $end
$var reg 5 B" waddr_o [4:0] $end
$var reg 32 C" wdata_o [31:0] $end
$var reg 1 t we_o $end
$var reg 1 s whilo_o $end
$upscope $end
$scope module ex_mem0 $end
$var wire 1 $ clk $end
$var wire 8 D" ex_aluop [7:0] $end
$var wire 32 E" ex_hi [31:0] $end
$var wire 32 F" ex_lo [31:0] $end
$var wire 32 G" ex_mem_addr [31:0] $end
$var wire 32 H" ex_opv2 [31:0] $end
$var wire 5 I" ex_waddr [4:0] $end
$var wire 32 J" ex_wdata [31:0] $end
$var wire 1 t ex_we $end
$var wire 1 s ex_whilo $end
$var wire 1 % rst $end
$var wire 6 K" stall [5:0] $end
$var reg 8 L" mem_aluop [7:0] $end
$var reg 32 M" mem_hi [31:0] $end
$var reg 32 N" mem_lo [31:0] $end
$var reg 32 O" mem_mem_addr [31:0] $end
$var reg 32 P" mem_opv2 [31:0] $end
$var reg 5 Q" mem_waddr [4:0] $end
$var reg 32 R" mem_wdata [31:0] $end
$var reg 1 Q mem_we $end
$var reg 1 O mem_whilo $end
$upscope $end
$scope module hilo_reg0 $end
$var wire 1 $ clk $end
$var wire 1 % rst $end
$var wire 1 : we $end
$var wire 32 S" lo_i [31:0] $end
$var wire 32 T" hi_i [31:0] $end
$var reg 32 U" hi_o [31:0] $end
$var reg 32 V" lo_o [31:0] $end
$upscope $end
$scope module id0 $end
$var wire 1 l cur_in_delay_slot_o $end
$var wire 8 W" ex_aluop_i [7:0] $end
$var wire 5 X" ex_waddr_i [4:0] $end
$var wire 32 Y" ex_wdata_i [31:0] $end
$var wire 1 t ex_we_i $end
$var wire 32 Z" inst_o [31:0] $end
$var wire 1 % rst $end
$var wire 1 B stallreq $end
$var wire 32 [" sext_imm [31:0] $end
$var wire 5 \" sa [4:0] $end
$var wire 5 ]" rt [4:0] $end
$var wire 5 ^" rs [4:0] $end
$var wire 32 _" reg2_data_i [31:0] $end
$var wire 32 `" reg1_data_i [31:0] $end
$var wire 5 a" rd [4:0] $end
$var wire 1 b" pre_inst_is_load $end
$var wire 32 c" pc_j [31:0] $end
$var wire 32 d" pc_i [31:0] $end
$var wire 32 e" pc_b [31:0] $end
$var wire 32 f" pc8 [31:0] $end
$var wire 32 g" pc4 [31:0] $end
$var wire 6 h" op [5:0] $end
$var wire 1 P mem_we_i $end
$var wire 32 i" mem_wdata_i [31:0] $end
$var wire 5 j" mem_waddr_i [4:0] $end
$var wire 16 k" inst_imm [15:0] $end
$var wire 32 l" inst_i [31:0] $end
$var wire 6 m" funct [5:0] $end
$var wire 1 ] cur_in_delay_slot_i $end
$var reg 8 n" aluop_o [7:0] $end
$var reg 3 o" alusel_o [2:0] $end
$var reg 32 p" branch_addr_o [31:0] $end
$var reg 1 d branch_flag_o $end
$var reg 32 q" imm [31:0] $end
$var reg 1 r" inst_valid $end
$var reg 32 s" link_addr_o [31:0] $end
$var reg 1 i next_in_delay_slot_o $end
$var reg 32 t" opv1_o [31:0] $end
$var reg 32 u" opv2_o [31:0] $end
$var reg 5 v" reg1_addr_o [4:0] $end
$var reg 1 G reg1_re_o $end
$var reg 5 w" reg2_addr_o [4:0] $end
$var reg 1 D reg2_re_o $end
$var reg 1 x" stallreq_for_reg1_load_dependant $end
$var reg 1 y" stallreq_for_reg2_load_dependant $end
$var reg 5 z" waddr_o [4:0] $end
$var reg 1 a we_o $end
$upscope $end
$scope module id_ex0 $end
$var wire 1 $ clk $end
$var wire 8 {" id_aluop [7:0] $end
$var wire 3 |" id_alusel [2:0] $end
$var wire 1 l id_cur_in_delay_slot $end
$var wire 32 }" id_inst [31:0] $end
$var wire 32 ~" id_link_addr [31:0] $end
$var wire 32 !# id_reg1 [31:0] $end
$var wire 32 "# id_reg2 [31:0] $end
$var wire 5 ## id_waddr [4:0] $end
$var wire 1 a id_we $end
$var wire 1 i next_in_delay_slot_i $end
$var wire 1 % rst $end
$var wire 6 $# stall [5:0] $end
$var reg 8 %# ex_aluop [7:0] $end
$var reg 3 &# ex_alusel [2:0] $end
$var reg 1 ^ ex_cur_in_delay_slot $end
$var reg 32 '# ex_inst [31:0] $end
$var reg 32 (# ex_link_addr [31:0] $end
$var reg 32 )# ex_reg1 [31:0] $end
$var reg 32 *# ex_reg2 [31:0] $end
$var reg 5 +# ex_waddr [4:0] $end
$var reg 1 u ex_we $end
$var reg 1 ] next_in_delay_slot_o $end
$upscope $end
$scope module if_id0 $end
$var wire 1 $ clk $end
$var wire 32 ,# if_inst [31:0] $end
$var wire 1 % rst $end
$var wire 6 -# stall [5:0] $end
$var wire 32 .# if_pc [31:0] $end
$var reg 32 /# id_inst [31:0] $end
$var reg 32 0# id_pc [31:0] $end
$upscope $end
$scope module mem0 $end
$var wire 1 $" LLbit_i $end
$var wire 8 1# aluop_i [7:0] $end
$var wire 32 2# hi_i [31:0] $end
$var wire 32 3# lo_i [31:0] $end
$var wire 32 4# mem_addr_i [31:0] $end
$var wire 32 5# mem_data_i [31:0] $end
$var wire 32 6# opv2_i [31:0] $end
$var wire 1 % rst $end
$var wire 5 7# waddr_i [4:0] $end
$var wire 32 8# wdata_i [31:0] $end
$var wire 1 Q we_i $end
$var wire 1 O whilo_i $end
$var wire 1 @ wb_LLbit_we_i $end
$var wire 1 A wb_LLbit_value_i $end
$var reg 1 9# LLbit $end
$var reg 1 [ LLbit_value_o $end
$var reg 1 Z LLbit_we_o $end
$var reg 32 :# hi_o [31:0] $end
$var reg 32 ;# lo_o [31:0] $end
$var reg 32 <# mem_addr_o [31:0] $end
$var reg 1 + mem_ce_o $end
$var reg 32 =# mem_data_o [31:0] $end
$var reg 4 ># mem_sel_o [3:0] $end
$var reg 1 ' mem_we_o $end
$var reg 5 ?# waddr_o [4:0] $end
$var reg 32 @# wdata_o [31:0] $end
$var reg 1 P we_o $end
$var reg 1 N whilo_o $end
$upscope $end
$scope module mem_wb0 $end
$var wire 1 $ clk $end
$var wire 1 [ mem_LLbit_value $end
$var wire 1 Z mem_LLbit_we $end
$var wire 32 A# mem_hi [31:0] $end
$var wire 32 B# mem_lo [31:0] $end
$var wire 5 C# mem_waddr [4:0] $end
$var wire 32 D# mem_wdata [31:0] $end
$var wire 1 P mem_we $end
$var wire 1 N mem_whilo $end
$var wire 1 % rst $end
$var wire 6 E# stall [5:0] $end
$var reg 1 A wb_LLbit_value $end
$var reg 1 @ wb_LLbit_we $end
$var reg 32 F# wb_hi [31:0] $end
$var reg 32 G# wb_lo [31:0] $end
$var reg 5 H# wb_waddr [4:0] $end
$var reg 32 I# wb_wdata [31:0] $end
$var reg 1 ; wb_we $end
$var reg 1 : wb_whilo $end
$upscope $end
$scope module pc_reg0 $end
$var wire 32 J# branch_addr_i [31:0] $end
$var wire 1 d branch_flag_i $end
$var wire 1 $ clk $end
$var wire 1 % rst $end
$var wire 6 K# stall [5:0] $end
$var reg 1 & ce $end
$var reg 32 L# pc [31:0] $end
$upscope $end
$scope module regfile1 $end
$var wire 1 $ clk $end
$var wire 5 M# raddr1 [4:0] $end
$var wire 5 N# raddr2 [4:0] $end
$var wire 1 G re1 $end
$var wire 1 D re2 $end
$var wire 1 % rst $end
$var wire 5 O# waddr [4:0] $end
$var wire 32 P# wdata [31:0] $end
$var wire 1 ; we $end
$var reg 32 Q# rdata1 [31:0] $end
$var reg 32 R# rdata2 [31:0] $end
$upscope $end
$upscope $end
$upscope $end
$upscope $end
$scope module inst_ll_sc_test $end
$scope module open_mips_min_sopc0 $end
$scope module openmips0 $end
$scope module regfile1 $end
$var reg 32 S# \regs[1] [31:0] $end
$upscope $end
$upscope $end
$upscope $end
$upscope $end
$scope module inst_ll_sc_test $end
$scope module open_mips_min_sopc0 $end
$scope module openmips0 $end
$scope module regfile1 $end
$var reg 32 T# \regs[3] [31:0] $end
$upscope $end
$upscope $end
$upscope $end
$upscope $end
$enddefinitions $end
#0
$dumpvars
bx T#
bx S#
b0 R#
b0 Q#
bx P#
bx O#
bx N#
bx M#
bx L#
b0 K#
bx J#
bx I#
bx H#
bx G#
bx F#
b0 E#
b0 D#
b0 C#
b0 B#
b0 A#
b0 @#
b0 ?#
b0 >#
b0 =#
b0 <#
b0 ;#
b0 :#
09#
bx 8#
bx 7#
bx 6#
b0 5#
bx 4#
bx 3#
bx 2#
bx 1#
bx 0#
bx /#
bx .#
b0 -#
bx ,#
bx +#
bx *#
bx )#
bx (#
bx '#
bx &#
bx %#
b0 $#
bx ##
b0 "#
b0 !#
bx ~"
bx }"
b0 |"
b0 {"
bx z"
0y"
0x"
bx w"
bx v"
b0 u"
b0 t"
bx s"
0r"
b0 q"
bx p"
b0 o"
b0 n"
bx m"
bx l"
bx k"
b0 j"
b0 i"
bx h"
bx g"
bx f"
bx e"
bx d"
bx00 c"
xb"
bx a"
b0 `"
b0 _"
bx ^"
bx ]"
bx \"
bx ["
bx Z"
b0 Y"
bx X"
bx W"
bx V"
bx U"
bx T"
bx S"
bx R"
bx Q"
bx P"
bx O"
bx N"
bx M"
bx L"
b0 K"
b0 J"
bx I"
bx H"
bx G"
b0 F"
b0 E"
bx D"
b0 C"
bx B"
b0 A"
b0 @"
b0 ?"
b0 >"
b0 ="
b0 <"
b0 ;"
b0 :"
b0 9"
bx 8"
bx 7"
bx 6"
bx 5"
bx 4"
bx 3"
bx 2"
b0 1"
b0 0"
bx /"
bx ."
bx -"
bx ,"
bx +"
0*"
bx )"
bx ("
bx '"
b0 &"
0%"
x$"
bx #"
bx ""
bx !"
bx ~
bx }
b0 |
b0 {
bx z
bx y
bx x
bx w
b0 v
xu
xt
0s
bx r
bx q
bx p
bx o
b0 n
b0 m
xl
bx k
bx j
xi
bx h
b0 g
b0 f
bx e
xd
bx c
bx b
0a
bx `
bx _
x^
x]
bx \
0[
0Z
bx Y
b0 X
bx W
b0 V
bx U
b0 T
bx S
b0 R
xQ
0P
xO
0N
bx M
b0 L
b0 K
b0 J
bx I
b0 H
0G
bx F
b0 E
0D
b0 C
0B
xA
x@
bx ?
bx >
bx =
bx <
x;
x:
09
bx 8
bx 7
b0 6
bx 5
bx 4
b0 3
b0 2
b0 1
b0 0
b0 /
bx .
bx -
b0 ,
0+
b0 *
b0 )
b0 (
0'
x&
1%
0$
bx #
bx "
bx !
$end
#1000
b0 b
b0 z"
b0 ##
b0 F
b0 w"
b0 N#
b0 I
b0 v"
b0 M#
b0 .
b0 5
b0 8
b0 ,#
0t
b0 w
b0 B"
b0 I"
b0 X"
0b"
b100 e"
b0 ["
b0 k"
b0 m"
b0 \"
b0 a"
b0 ]"
b0 ^"
b0 h"
b0 c"
b0 ~
b0 2"
b0 G"
b11111111111111111111111111111111 ("
0&
b0 k
b0 Z"
b0 }"
b0 h
b0 l"
b0 /#
b1000 f"
b100 g"
b0 c
b0 d"
b0 0#
b0 `
b0 5"
b0 '#
0l
0]
b0 _
b0 4"
b0 (#
0^
0u
b0 x
b0 -"
b0 +#
b0 }
b0 )"
b0 H"
b0 y
b0 ."
b0 *#
b0 z
b0 /"
b0 )#
b0 ""
b0 7"
b0 &#
b0 !"
b0 '"
b0 D"
b0 W"
b0 #"
b0 8"
b0 %#
b0 p
b0 P"
b0 6#
b0 q
b0 O"
b0 4#
b0 r
b0 L"
b0 1#
b0 W
b0 N"
b0 3#
b0 Y
b0 M"
b0 2#
0O
b0 S
b0 R"
b0 8#
0Q
b0 U
b0 Q"
b0 7#
0A
0@
b0 >
b0 +"
b0 S"
b0 G#
b0 ?
b0 ,"
b0 T"
b0 F#
0:
b0 <
b0 I#
b0 P#
0;
b0 =
b0 H#
b0 O#
b0 \
b0 3"
b0 V"
b0 o
b0 6"
b0 U"
0$"
1$
#2000
0$
#3000
b0 -
b0 4
b0 7
b0 M
b0 .#
b0 L#
1$
#4000
0$
#5000
1$
#6000
0$
#7000
1$
#8000
0$
#9000
1$
#10000
0$
#11000
1$
#12000
0$
#13000
1$
#14000
0$
#15000
1$
#16000
0$
#17000
1$
#18000
0$
#19000
1$
#20000
1r"
1a
1D
b10 m
b10 o"
b10 |"
b1111100 n
b1111100 n"
b1111100 {"
0i
b0 j
b0 s"
b0 ~"
b0 e
b0 p"
b0 J#
0d
0$
0%
#21000
b110100000000010001001000110100 .
b110100000000010001001000110100 5
b110100000000010001001000110100 8
b110100000000010001001000110100 ,#
1t
1&
1u
b10 ""
b10 7"
b10 &#
b1111100 !"
b1111100 '"
b1111100 D"
b1111100 W"
b1111100 #"
b1111100 8"
b1111100 %#
1$
#22000
0$
#23000
b1001000110100 f
b1001000110100 u"
b1001000110100 "#
b1001000110100 q"
b1 b
b1 z"
b1 ##
1G
1r"
1a
0D
b1 m
b1 o"
b1 |"
b100101 n
b100101 n"
b100101 {"
1P
b10101100000000010000000000000000 .
b10101100000000010000000000000000 5
b10101100000000010000000000000000 8
b10101100000000010000000000000000 ,#
b100100011010100 e"
b1000100100011010000 c"
b1001000110100 ["
b1001000110100 k"
b110100 m"
b1000 \"
b10 a"
b1 ]"
b1101 h"
b1111100 r
b1111100 L"
b1111100 1#
1Q
b110100000000010001001000110100 k
b110100000000010001001000110100 Z"
b110100000000010001001000110100 }"
b110100000000010001001000110100 h
b110100000000010001001000110100 l"
b110100000000010001001000110100 /#
b100 -
b100 4
b100 7
b100 M
b100 .#
b100 L#
1$
#24000
0$
#25000
bx E
bx _"
bx R#
b1001000110100 f
b1001000110100 u"
b1001000110100 "#
b1001000110100 v
b1001000110100 C"
b1001000110100 J"
b1001000110100 Y"
b1 F
b1 w"
b1 N#
1D
b110100000000010101011001111000 .
b110100000000010101011001111000 5
b110100000000010101011001111000 8
b110100000000010101011001111000 ,#
1r"
b0 q"
b0 b
b0 z"
b0 ##
0a
1G
b111 m
b111 o"
b111 |"
b11101011 n
b11101011 n"
b11101011 {"
b1 w
b1 B"
b1 I"
b1 X"
b1001000110100 >"
b1000000000000000000 c"
b0 ["
b0 k"
b0 m"
b0 \"
b0 a"
b101011 h"
b1001000110100 ~
b1001000110100 2"
b1001000110100 G"
b1000 -
b1000 4
b1000 7
b1000 M
b1000 .#
b1000 L#
b10101100000000010000000000000000 k
b10101100000000010000000000000000 Z"
b10101100000000010000000000000000 }"
b10101100000000010000000000000000 h
b10101100000000010000000000000000 l"
b10101100000000010000000000000000 /#
b1000 e"
b1100 f"
b1000 g"
b100 c
b100 d"
b100 0#
b110100000000010001001000110100 `
b110100000000010001001000110100 5"
b110100000000010001001000110100 '#
b1 x
b1 -"
b1 +#
b1001000110100 }
b1001000110100 )"
b1001000110100 H"
b1001000110100 y
b1001000110100 ."
b1001000110100 *#
b1 ""
b1 7"
b1 &#
b100101 !"
b100101 '"
b100101 D"
b100101 W"
b100101 #"
b100101 8"
b100101 %#
1;
1$
#26000
0$
#27000
b101011001111000 f
b101011001111000 u"
b101011001111000 "#
b0 E
b0 _"
b0 R#
b101011001111000 q"
b1 b
b1 z"
b1 ##
1a
b1001000110100 R
b1001000110100 i"
b1001000110100 @#
b1001000110100 D#
b1 T
b1 j"
b1 ?#
b1 C#
b0 v
b0 C"
b0 J"
b0 Y"
0t
b0 w
b0 B"
b0 I"
b0 X"
b0 >"
1r"
b0 F
b0 w"
b0 N#
0D
1G
b1 m
b1 o"
b1 |"
b100101 n
b100101 n"
b100101 {"
b11100000000000010000000000000000 .
b11100000000000010000000000000000 5
b11100000000000010000000000000000 8
b11100000000000010000000000000000 ,#
b0 ~
b0 2"
b0 G"
b1010101100111100000 c"
b101011001111000 ["
b101011001111000 k"
b111000 m"
b11001 \"
b1010 a"
b1101 h"
b1001000110100 p
b1001000110100 P"
b1001000110100 6#
b1001000110100 q
b1001000110100 O"
b1001000110100 4#
b100101 r
b100101 L"
b100101 1#
b1001000110100 S
b1001000110100 R"
b1001000110100 8#
b1 U
b1 Q"
b1 7#
b10101100000000010000000000000000 `
b10101100000000010000000000000000 5"
b10101100000000010000000000000000 '#
0u
b0 x
b0 -"
b0 +#
b111 ""
b111 7"
b111 &#
b11101011 !"
b11101011 '"
b11101011 D"
b11101011 W"
b11101011 #"
b11101011 8"
b11101011 %#
b110100000000010101011001111000 k
b110100000000010101011001111000 Z"
b110100000000010101011001111000 }"
b110100000000010101011001111000 h
b110100000000010101011001111000 l"
b110100000000010101011001111000 /#
b10101100111101100 e"
b10000 f"
b1100 g"
b1000 c
b1000 d"
b1000 0#
b1100 -
b1100 4
b1100 7
b1100 M
b1100 .#
b1100 L#
1$
#28000
0$
#29000
b1001000110100 E
b1001000110100 _"
b1001000110100 R#
b101011001111000 v
b101011001111000 C"
b101011001111000 J"
b101011001111000 Y"
b101011001111000 f
b101011001111000 u"
b101011001111000 "#
b1 F
b1 w"
b1 N#
1D
b10001100000000010000000000000000 .
b10001100000000010000000000000000 5
b10001100000000010000000000000000 8
b10001100000000010000000000000000 ,#
1r"
b0 q"
b1 b
b1 z"
b1 ##
1a
1G
b111 m
b111 o"
b111 |"
b11111000 n
b11111000 n"
b11111000 {"
1t
b1 w
b1 B"
b1 I"
b1 X"
b101011001111000 >"
1+
b1001000110100 )
b1001000110100 1
b1001000110100 K
b1001000110100 =#
b1111 (
b1111 /
b1111 J
b1111 >#
1'
b0 R
b0 i"
b0 @#
b0 D#
0P
b0 T
b0 j"
b0 ?#
b0 C#
b1000000000000000000 c"
b0 ["
b0 k"
b0 m"
b0 \"
b0 a"
b111000 h"
b101011001111000 ~
b101011001111000 2"
b101011001111000 G"
b10000 -
b10000 4
b10000 7
b10000 M
b10000 .#
b10000 L#
b11100000000000010000000000000000 k
b11100000000000010000000000000000 Z"
b11100000000000010000000000000000 }"
b11100000000000010000000000000000 h
b11100000000000010000000000000000 l"
b11100000000000010000000000000000 /#
b10000 e"
b10100 f"
b10000 g"
b1100 c
b1100 d"
b1100 0#
b110100000000010101011001111000 `
b110100000000010101011001111000 5"
b110100000000010101011001111000 '#
1u
b1 x
b1 -"
b1 +#
b101011001111000 }
b101011001111000 )"
b101011001111000 H"
b101011001111000 y
b101011001111000 ."
b101011001111000 *#
b1 ""
b1 7"
b1 &#
b100101 !"
b100101 '"
b100101 D"
b100101 W"
b100101 #"
b100101 8"
b100101 %#
b0 q
b0 O"
b0 4#
b11101011 r
b11101011 L"
b11101011 1#
b0 S
b0 R"
b0 8#
0Q
b0 U
b0 Q"
b0 7#
b1001000110100 <
b1001000110100 I#
b1001000110100 P#
b1 =
b1 H#
b1 O#
1$
#30000
0$
#31000
b0 C
b0 &"
b0 K"
b0 $#
b0 -#
b0 E#
b0 K#
b0 f
b0 u"
b0 "#
b0 E
b0 _"
b0 R#
0B
0y"
0+
b0 )
b0 1
b0 K
b0 =#
b0 (
b0 /
b0 J
b0 >#
0'
b101011001111000 R
b101011001111000 i"
b101011001111000 @#
b101011001111000 D#
1P
b1 T
b1 j"
b1 ?#
b1 C#
b0 v
b0 C"
b0 J"
b0 Y"
b0 >"
1r"
b1 b
b1 z"
b1 ##
1a
b0 F
b0 w"
b0 N#
0D
1G
b111 m
b111 o"
b111 |"
b11100011 n
b11100011 n"
b11100011 {"
b0 .
b0 5
b0 8
b0 ,#
1b"
b0 ~
b0 2"
b0 G"
b100011 h"
b1001000110100 #
b0 <
b0 I#
b0 P#
0;
b0 =
b0 H#
b0 O#
b101011001111000 p
b101011001111000 P"
b101011001111000 6#
b101011001111000 q
b101011001111000 O"
b101011001111000 4#
b100101 r
b100101 L"
b100101 1#
b101011001111000 S
b101011001111000 R"
b101011001111000 8#
1Q
b1 U
b1 Q"
b1 7#
b11100000000000010000000000000000 `
b11100000000000010000000000000000 5"
b11100000000000010000000000000000 '#
b111 ""
b111 7"
b111 &#
b11111000 !"
b11111000 '"
b11111000 D"
b11111000 W"
b11111000 #"
b11111000 8"
b11111000 %#
b1001000110100 S#
b10001100000000010000000000000000 k
b10001100000000010000000000000000 Z"
b10001100000000010000000000000000 }"
b10001100000000010000000000000000 h
b10001100000000010000000000000000 l"
b10001100000000010000000000000000 /#
b10100 e"
b11000 f"
b10100 g"
b10000 c
b10000 d"
b10000 0#
b10100 -
b10100 4
b10100 7
b10100 M
b10100 .#
b10100 L#
1$
#32000
0$
#33000
1D
b110100000000010000000000000000 .
b110100000000010000000000000000 5
b110100000000010000000000000000 8
b110100000000010000000000000000 ,#
1r"
b0 b
b0 z"
b0 ##
1a
0G
b10 m
b10 o"
b10 |"
b1111100 n
b1111100 n"
b1111100 {"
b0 R
b0 i"
b0 @#
b0 D#
1b"
b0 c"
b0 ]"
b0 h"
b11000 -
b11000 4
b11000 7
b11000 M
b11000 .#
b11000 L#
b0 k
b0 Z"
b0 }"
b0 h
b0 l"
b0 /#
b11000 e"
b11100 f"
b11000 g"
b10100 c
b10100 d"
b10100 0#
b10001100000000010000000000000000 `
b10001100000000010000000000000000 5"
b10001100000000010000000000000000 '#
b0 }
b0 )"
b0 H"
b0 y
b0 ."
b0 *#
b11100011 !"
b11100011 '"
b11100011 D"
b11100011 W"
b11100011 #"
b11100011 8"
b11100011 %#
b0 q
b0 O"
b0 4#
b11111000 r
b11111000 L"
b11111000 1#
b0 S
b0 R"
b0 8#
b101011001111000 <
b101011001111000 I#
b101011001111000 P#
1;
b1 =
b1 H#
b1 O#
1$
#34000
0$
#35000
b1001000110100 R
b1001000110100 i"
b1001000110100 @#
b1001000110100 D#
b1001000110100 *
b1001000110100 3
b1001000110100 6
b1001000110100 5#
b1 b
b1 z"
b1 ##
1G
1+
b1111 (
b1111 /
b1111 J
b1111 >#
b0 w
b0 B"
b0 I"
b0 X"
1r"
1a
0D
b1 m
b1 o"
b1 |"
b100101 n
b100101 n"
b100101 {"
b11000000000000010000000000000000 .
b11000000000000010000000000000000 5
b11000000000000010000000000000000 8
b11000000000000010000000000000000 ,#
0b"
b1000000000000000000 c"
b1 ]"
b1101 h"
b0 <
b0 I#
b0 P#
b0 p
b0 P"
b0 6#
b11100011 r
b11100011 L"
b11100011 1#
b0 `
b0 5"
b0 '#
b0 x
b0 -"
b0 +#
b10 ""
b10 7"
b10 &#
b1111100 !"
b1111100 '"
b1111100 D"
b1111100 W"
b1111100 #"
b1111100 8"
b1111100 %#
b101011001111000 S#
b110100000000010000000000000000 k
b110100000000010000000000000000 Z"
b110100000000010000000000000000 }"
b110100000000010000000000000000 h
b110100000000010000000000000000 l"
b110100000000010000000000000000 /#
b11100 e"
b100000 f"
b11100 g"
b11000 c
b11000 d"
b11000 0#
b11100 -
b11100 4
b11100 7
b11100 M
b11100 .#
b11100 L#
1$
#36000
0$
